{
    "_id": "4O7wKZdeAemTEbvG",
    "data": {
        "attributes": {
            "ac": {
                "value": 16
            },
            "hardness": 5,
            "hasHealth": true,
            "hp": {
                "details": "",
                "max": 20,
                "temp": 0,
                "tempmax": 0,
                "value": 20
            },
            "stealth": {
                "details": "(trained)",
                "value": 7
            }
        },
        "creatureType": "",
        "details": {
            "description": "Pressure-sensitive panels in the floor connect to a stone slab hidden in a hallway's ceiling.",
            "disable": "<p><span data-pf2-check=\"thievery\" data-pf2-label=\"Disable Floor Panel DC\" data-pf2-dc=\"15\" data-pf2-show-dc=\"gm\">Thievery</span> (trained) on the floor panels before the slab falls</p>",
            "isComplex": false,
            "level": {
                "value": 1
            },
            "reset": "",
            "routine": ""
        },
        "saves": {
            "fortitude": {
                "saveDetail": "",
                "value": 10
            },
            "reflex": {
                "saveDetail": "",
                "value": 2
            },
            "will": {
                "saveDetail": "",
                "value": 0
            }
        },
        "source": {
            "value": "Pathfinder Core Rulebook"
        },
        "statusEffects": [],
        "traits": {
            "ci": [],
            "di": {
                "custom": "",
                "selected": {},
                "value": [
                    "critical-hits",
                    "object-immunities",
                    "precision"
                ]
            },
            "dr": [],
            "dv": [],
            "rarity": {
                "value": "common"
            },
            "size": {
                "value": "med"
            },
            "traits": {
                "custom": "",
                "value": [
                    "mechanical"
                ]
            }
        }
    },
    "effects": [],
    "flags": {},
    "img": "systems/pf2e/icons/default-icons/hazard.svg",
    "items": [
        {
            "_id": "34y07VryqAVeJhfG",
            "data": {
                "actionCategory": {
                    "value": ""
                },
                "actionType": {
                    "value": "reaction"
                },
                "actions": {
                    "value": null
                },
                "description": {
                    "value": "<p data-visibility=\"gm\"><strong>Trigger</strong> Pressure is placed on any floor tile.</p>\n<p><strong>Effect</strong> The door falls, closing off the hallway. The stone slab deals [[/r {3d8}[bludgeoning]]]{3d8 bludgeoning damage} to anyone beneath or adjacent to the slab when it drops and pushes them out of its space in a random direction. A creature that succeeds at a <span data-pf2-check=\"reflex\" data-pf2-dc=\"17\" data-pf2-traits=\"damaging-effect\" data-pf2-label=\"Slam Shut DC\" data-pf2-show-dc=\"gm\">Reflex</span> save takes no damage and rolls out of the way in a random direction. On a critical success, they can choose the direction.</p>\n<p>Lifting the fallen slab requires a successful <span data-pf2-check=\"athletics\" data-pf2-label=\"Lift a Slab Athletics DC\" data-pf2-dc=\"25\" data-pf2-show-dc=\"all\">Athletics</span> check.</p>\n<p data-visibility=\"gm\">Hitting the floor panels triggers the trap. The slab uses the same AC and saves as the trap, but it has Hardness 12, HP 48 (BT 24).</p>"
                },
                "requirements": {
                    "value": ""
                },
                "rules": [],
                "slug": null,
                "source": {
                    "value": ""
                },
                "traits": {
                    "custom": "",
                    "rarity": {
                        "value": "common"
                    },
                    "value": []
                },
                "trigger": {
                    "value": ""
                },
                "weapon": {
                    "value": ""
                }
            },
            "effects": [],
            "flags": {},
            "img": "systems/pf2e/icons/actions/Reaction.webp",
            "name": "Slam Shut",
            "sort": 100000,
            "type": "action"
        }
    ],
    "name": "Slamming Door",
    "token": {
        "disposition": 0,
        "height": 1,
        "img": "systems/pf2e/icons/default-icons/hazard.svg",
        "name": "Slamming Door",
        "width": 1
    },
    "type": "hazard"
}
