{
    "_id": "cnsq5cXgQu4FXnoZ",
    "content": "<h1>Aldori Duelist</h1>\n<p>You have sworn the Aldori swordpact and study the art of Aldori dueling, a famed school of bladecraft which has been passed down for over a millennium from the teachings of Baron Sirian Aldori. One day, you hope to demonstrate your skill at swordplay in order to become acknowledged as a true swordlord.</span></p>\n<h2 style=\"text-align: left;\">@Compendium[pf2e.feats-srd.Aldori Duelist Dedication]{Aldori Duelist Dedication} Feat 2</h2>\n<p><strong>Prerequisites</strong> trained in Aldori dueling swords</p>\n<p><strong>Access</strong> You are from the Broken Lands region.</p>\n<hr />\n<p>Your Aldori duelist training teaches you martial techniques and increases your dedication to the Aldori dueling sword. You become trained in your choice of Acrobatics or Athletics and in Dueling Lore; if you were already trained, you become an expert instead. Whenever your proficiency rank in any weapon increases to expert or beyond, you also gain that new proficiency rank with Aldori dueling swords. You gain access to Aldori dueling swords.</p>\n<p><strong>Special</strong> You cannot select another dedication feat until you have gained two other feats from the Aldori Duelist archetype.</p>\n<h2>@Compendium[pf2e.feats-srd.Aldori Parry]{Aldori Parry} Feat 4</h2>\n<p><strong>Prerequisites</strong> Aldori Duelist Dedication</p>\n<p><strong>Requirements</strong> You are wielding only an Aldori dueling sword and have your other hand or hands free.</p>\n<hr />\n<p>You can parry attacks against you with your Aldori dueling sword. You gain a +2 circumstance bonus to AC until the start of your next turn as long as you continue to meet the requirement.</p>\n<h2>@Compendium[pf2e.feats-srd.Duelist's Edge]{Duelist's Edge} Feat 4</h2>\n<p><strong>Prerequisites</strong> Aldori Duelist Dedication</p>\n<p><strong>Trigger</strong> You roll initiative, and you can observe at least one opponent.</p>\n<hr />\n<p>You hone your reaction time through duels and learn to draw your weapon seamlessly as you begin a fight. You gain a +2 circumstance bonus to the triggering initiative roll, and you can immediately Interact to draw your Aldori dueling sword.</p>\n<h2>@Compendium[pf2e.feats-srd.Aldori Riposte]{Aldori Riposte} Feat 6</h2>\n<p><strong>Prerequisites</strong> Aldori Parry</p>\n<p><strong>Requirements</strong> You are benefiting from Aldori Parry.</p>\n<p><strong>Trigger</strong> An opponent within your reach critically fails a Strike against you.</p>\n<hr />\n<p>You riposte with your Aldori dueling sword when your enemy leaves an opening. Make a melee Strike or use a Disarm action against the triggering opponent using your Aldori dueling sword.</p>\n<h2>@Compendium[pf2e.feats-srd.Unnerving Prowess]{Unnerving Prowess} Feat 6</h2>\n<p><strong>Prerequisites</strong> Aldori Duelist Dedication</p>\n<p><strong>Trigger</strong> You critically succeed at a Strike or Disarm with your Aldori dueling sword.</p>\n<p>Your incredible skill with your blade unnerves your foes. You attempt to Demoralize the target of your Strike or Disarm. This Demoralize attempt does not have the auditory trait, nor do you take a penalty to the check if the target doesn't understand your language.</p>\n<h2>@Compendium[pf2e.feats-srd.Saving Slash]{Saving Slash} Feat 10</h2>\n<p><strong>Prerequisites</strong> Aldori Duelist Dedication</p>\n<p><strong>Trigger</strong> An opponent critically hits you with a melee attack.</p>\n<p>You quickly whirl your blade, trying to deflect enough momentum to avoid the worst of the attack. Attempt a DC 16 flat check. If you succeed, the attack becomes a normal hit, instead of a critical hit.</p>\n",
    "flags": {},
    "name": "Aldori Duelist",
    "permission": {
        "default": 0
    }
}
