{
    "_id": "f4H9d0b1vJvxeFqs",
    "data": {
        "abilities": {
            "cha": {
                "mod": 0
            },
            "con": {
                "mod": 7
            },
            "dex": {
                "mod": -1
            },
            "int": {
                "mod": 0
            },
            "str": {
                "mod": 8
            },
            "wis": {
                "mod": 0
            }
        },
        "attributes": {
            "ac": {
                "details": "",
                "value": 28
            },
            "allSaves": {
                "value": ""
            },
            "hp": {
                "details": "negative healing",
                "max": 320,
                "temp": 0,
                "value": 320
            },
            "initiative": {
                "ability": "perception"
            },
            "perception": {
                "value": 15
            },
            "shield": {
                "ac": 0,
                "brokenThreshold": "0",
                "hardness": 0,
                "max": "0",
                "value": 0
            },
            "speed": {
                "otherSpeeds": [],
                "value": "25"
            }
        },
        "details": {
            "alignment": {
                "value": "NE"
            },
            "blurb": "",
            "creatureType": "",
            "level": {
                "value": 11
            },
            "privateNotes": "",
            "publicNotes": "",
            "source": {
                "value": "Pathfinder #154: Siege of the Dinosaurs"
            }
        },
        "resources": {},
        "saves": {
            "fortitude": {
                "saveDetail": "",
                "value": 24
            },
            "reflex": {
                "saveDetail": "",
                "value": 14
            },
            "will": {
                "saveDetail": "",
                "value": 19
            }
        },
        "traits": {
            "attitude": {
                "value": "hostile"
            },
            "ci": [],
            "di": {
                "custom": "",
                "value": [
                    "death-effects",
                    "disease",
                    "mental",
                    "paralyzed",
                    "poison",
                    "unconscious"
                ]
            },
            "dr": [],
            "dv": [
                {
                    "exceptions": "",
                    "label": "Positive",
                    "type": "positive",
                    "value": "15"
                },
                {
                    "exceptions": "",
                    "label": "Slashing",
                    "type": "slashing",
                    "value": "15"
                }
            ],
            "languages": {
                "custom": "",
                "selected": [],
                "value": []
            },
            "rarity": {
                "value": "rare"
            },
            "senses": {
                "value": "darkvision"
            },
            "size": {
                "value": "med"
            },
            "traits": {
                "custom": "",
                "value": [
                    "undead"
                ]
            }
        }
    },
    "effects": [],
    "flags": {},
    "img": "systems/pf2e/icons/default-icons/npc.svg",
    "items": [
        {
            "_id": "kmD7smfQheBtKJZb",
            "data": {
                "attack": {
                    "value": ""
                },
                "attackEffects": {
                    "value": [
                        "improved-knockdown"
                    ]
                },
                "bonus": {
                    "value": 24
                },
                "damageRolls": {
                    "9w8gaamqv7jes1ouplkc": {
                        "damage": "2d12+16",
                        "damageType": "bludgeoning"
                    }
                },
                "description": {
                    "value": ""
                },
                "rules": [],
                "slug": null,
                "source": {
                    "value": ""
                },
                "traits": {
                    "custom": "",
                    "rarity": {
                        "value": "common"
                    },
                    "value": []
                },
                "weaponType": {
                    "value": "melee"
                }
            },
            "effects": [],
            "flags": {},
            "img": "systems/pf2e/icons/default-icons/melee.svg",
            "name": "Fist",
            "sort": 100000,
            "type": "melee"
        },
        {
            "_id": "zDrqxe9jDHILx6v0",
            "data": {
                "actionCategory": {
                    "value": "interaction"
                },
                "actionType": {
                    "value": "passive"
                },
                "actions": {
                    "value": null
                },
                "description": {
                    "value": "<p>A sodden sentinel is permanently @Compendium[pf2e.conditionitems.Slowed]{Slowed 1} and can't use reactions.</p>"
                },
                "requirements": {
                    "value": ""
                },
                "rules": [],
                "slug": null,
                "source": {
                    "value": ""
                },
                "traits": {
                    "custom": "",
                    "rarity": {
                        "value": "common"
                    },
                    "value": []
                },
                "trigger": {
                    "value": ""
                },
                "weapon": {
                    "value": ""
                }
            },
            "effects": [],
            "flags": {},
            "img": "systems/pf2e/icons/actions/Passive.webp",
            "name": "Slow",
            "sort": 200000,
            "type": "action"
        },
        {
            "_id": "4hmSKla48vJAAJG6",
            "data": {
                "actionCategory": {
                    "value": "defensive"
                },
                "actionType": {
                    "value": "passive"
                },
                "actions": {
                    "value": null
                },
                "description": {
                    "value": "<p>When a sodden sentinel is reduced to 0 Hit Points, it explodes, dealing [[/r {6d6}[bludgeoning]]]{6d6 bludgeoning damage} to each creature in a 10-foot emanation (<span data-pf2-check=\"reflex\" data-pf2-dc=\"30\" data-pf2-traits=\"damaging-effect\" data-pf2-label=\"Tainted Guts DC\" data-pf2-show-dc=\"gm\">basic Reflex</span> save). A creature that fails this save is also @Compendium[pf2e.conditionitems.Blinded]{Blinded} for [[/br 1d4 #rounds]]{1d4 rounds} (1 minute on a critical failure).</p>"
                },
                "requirements": {
                    "value": ""
                },
                "rules": [],
                "slug": null,
                "source": {
                    "value": ""
                },
                "traits": {
                    "custom": "",
                    "rarity": {
                        "value": "common"
                    },
                    "value": []
                },
                "trigger": {
                    "value": ""
                },
                "weapon": {
                    "value": ""
                }
            },
            "effects": [],
            "flags": {},
            "img": "systems/pf2e/icons/actions/Passive.webp",
            "name": "Tainted Guts",
            "sort": 300000,
            "type": "action"
        },
        {
            "_id": "DrJdeATQTR9zK1Rn",
            "data": {
                "actionCategory": {
                    "value": "offensive"
                },
                "actionType": {
                    "value": "passive"
                },
                "actions": {
                    "value": null
                },
                "description": {
                    "value": "<p>A sodden sentinel's fist Strike deals an additional [[/r {2d6}]]{2d6 damage} to prone creatures.</p>"
                },
                "requirements": {
                    "value": ""
                },
                "rules": [],
                "slug": null,
                "source": {
                    "value": ""
                },
                "traits": {
                    "custom": "",
                    "rarity": {
                        "value": "common"
                    },
                    "value": []
                },
                "trigger": {
                    "value": ""
                },
                "weapon": {
                    "value": ""
                }
            },
            "effects": [],
            "flags": {},
            "img": "systems/pf2e/icons/actions/Passive.webp",
            "name": "Pummel the Fallen",
            "sort": 400000,
            "type": "action"
        },
        {
            "_id": "nNzZIeP9wu8KlZFp",
            "data": {
                "actionCategory": {
                    "value": "offensive"
                },
                "actionType": {
                    "value": "action"
                },
                "actions": {
                    "value": 2
                },
                "description": {
                    "value": "<p>(necromancy, occult, water) The sodden sentinel vomits up a supernaturally tainted wave of seawater in a 30-foot cone. Each living creature in the area takes [[/r {6d10}[negative]]]{6d10 negative damage} (<span data-pf2-check=\"reflex\" data-pf2-dc=\"30\" data-pf2-traits=\"damaging-effect\" data-pf2-label=\"Seawater Retch DC\" data-pf2-show-dc=\"gm\">basic Reflex</span> save). It can't use Seawater Retch again for [[/br 1d4 #rounds]]{1d4 rounds}.</p>"
                },
                "requirements": {
                    "value": ""
                },
                "rules": [],
                "slug": null,
                "source": {
                    "value": ""
                },
                "traits": {
                    "custom": "",
                    "rarity": {
                        "value": "common"
                    },
                    "value": []
                },
                "trigger": {
                    "value": ""
                },
                "weapon": {
                    "value": ""
                }
            },
            "effects": [],
            "flags": {},
            "img": "systems/pf2e/icons/actions/TwoActions.webp",
            "name": "Seawater Retch",
            "sort": 500000,
            "type": "action"
        },
        {
            "_id": "9G8TkgAbbWFHY5Jh",
            "data": {
                "description": {
                    "value": ""
                },
                "item": {
                    "value": 0
                },
                "mod": {
                    "value": 26
                },
                "proficient": {
                    "value": 0
                },
                "rules": [],
                "slug": null,
                "source": {
                    "value": ""
                },
                "traits": {
                    "custom": "",
                    "rarity": {
                        "value": "common"
                    },
                    "value": []
                }
            },
            "effects": [],
            "flags": {},
            "img": "systems/pf2e/icons/default-icons/lore.svg",
            "name": "Athletics",
            "sort": 600000,
            "type": "lore"
        }
    ],
    "name": "Sodden Sentinel",
    "token": {
        "disposition": -1,
        "height": 1,
        "img": "systems/pf2e/icons/default-icons/npc.svg",
        "name": "Sodden Sentinel",
        "width": 1
    },
    "type": "npc"
}
