{
    "_id": "7irlzyZA50KqTwce",
    "data": {
        "MAP": {
            "value": ""
        },
        "baseItem": "jezail",
        "bonus": {
            "value": 0
        },
        "bonusDamage": {
            "value": 0
        },
        "brokenThreshold": {
            "value": 0
        },
        "bulkCapacity": {
            "value": ""
        },
        "category": "martial",
        "collapsed": {
            "value": false
        },
        "containerId": {
            "value": null
        },
        "damage": {
            "damageType": "piercing",
            "dice": 1,
            "die": "d8",
            "value": ""
        },
        "description": {
            "value": "<p><strong>Perception</strong> +11; precise vision 30 feet, imprecise hearing 30 feet</p>\n<p><strong>Communication</strong> speech (Common)</p>\n<p><strong>Skills</strong> Nature +9, Performance +10, Survival +11</p>\n<p><strong>Int</strong>+0, <strong>Wis</strong>+2, <strong>Cha</strong>+3</p>\n<p><strong>Will</strong> +11</p>\n<p>Possessing a boisterous, proud demeanor, this <em>+1 jezail</em> is an aspiring big game hunter, always quick to share a tale of its bold adventures and predatory conquests-although the veracity of such tales is often questionable. A <em>boastful hunter</em> enjoys tracking and hunting animals of all kinds but takes particular pleasure in taking down large, dangerous, or rare animals. Against an animal, the <em>boastful hunter</em> deals [[/r {1d6}[additional]]]{1d6 additional damage}. On a critical hit against an animal, the <em>boastful hunter</em> also deals [[/r {1d6}[persistent,bleed]]]{1d6} @Compendium[pf2e.conditionitems.Persistent Damage]{Persistent Bleed Damage}.</p>\n<p>A <em>boastful hunter</em> urges you to face off against tougher and tougher creatures-a challenge the ambitious rifle may not be adequate to deal with. If the <em>boastful hunter</em> goes one week without participating in a hunt against an animal of at least your level, it becomes bored. A bored <em>boastful hunter</em> complains incessantly and imposes a -1 item penalty to attack rolls against non-animal targets. A bored <em>boastful hunter</em> can be appeased by using it in combat against an animal of at least your level.</p>\n<p>Unable to accept its own weaknesses, a <em>boastful hunter</em> blames any failed hunts on you, and considers remarks about its strength or quality a terrible insult. An insulted <em>boastful hunter</em> badmouths you to sentient creatures you interact with, imposing a -1 item penalty to Deception, Diplomacy, and Intimidation skill checks, and all attacks with it incur a misfire chance until the weapon is appeased. An insulted <em>boastful hunter</em> can be appeased by complimenting it and succeeding at a <span data-pf2-check=\"diplomacy\" data-pf2-label=\"Boastful Hunter Appeasement DC\" data-pf2-dc=\"21\" data-pf2-show-dc=\"gm\">Diplomacy</span> check against its Will DC two days in a row. You can only attempt a Diplomacy check to appease the <em>boastful hunter</em> once each day.</p>"
        },
        "equipped": {
            "value": false
        },
        "equippedBulk": {
            "value": ""
        },
        "group": "firearm",
        "hands": {
            "value": false
        },
        "hardness": {
            "value": 0
        },
        "hp": {
            "value": 0
        },
        "identification": {
            "misidentified": {},
            "status": "identified",
            "unidentified": {
                "data": {
                    "description": {
                        "value": ""
                    }
                },
                "img": "",
                "name": ""
            }
        },
        "invested": {
            "value": null
        },
        "level": {
            "value": 2
        },
        "maxHp": {
            "value": 0
        },
        "negateBulk": {
            "value": "0"
        },
        "potencyRune": {
            "value": 1
        },
        "preciousMaterial": {
            "value": null
        },
        "preciousMaterialGrade": {
            "value": null
        },
        "price": {
            "value": "35 gp"
        },
        "property1": {
            "critDamage": "",
            "critDamageType": "",
            "critDice": 0,
            "critDie": "",
            "criticalConditionType": "",
            "criticalConditionValue": null,
            "damageType": "",
            "dice": 0,
            "die": "",
            "strikeConditionType": "",
            "strikeConditionValue": null,
            "value": ""
        },
        "propertyRune1": {
            "value": null
        },
        "propertyRune2": {
            "value": null
        },
        "propertyRune3": {
            "value": null
        },
        "propertyRune4": {
            "value": null
        },
        "quantity": {
            "value": 1
        },
        "range": 90,
        "reload": {
            "value": "1"
        },
        "rules": [
            {
                "key": "Note",
                "outcome": [
                    "criticalSuccess"
                ],
                "predicate": {
                    "all": [
                        "target:animal"
                    ]
                },
                "selector": "{item|_id}-damage",
                "text": "<p class='compact-text'><strong>Boastful Hunter</strong> On a critical hit against an animal, the boastful hunter also deals [[/r {1d6}[persistent,bleed]]]{1d6} @Compendium[pf2e.conditionitems.Persistent Damage]{Persistent Bleed Damage}.</p>"
            },
            {
                "diceNumber": 1,
                "key": "DamageDice",
                "predicate": {
                    "all": [
                        "target:animal"
                    ]
                },
                "selector": "{item|_id}-damage"
            },
            {
                "key": "FlatModifier",
                "predicate": {
                    "all": [
                        "boredWeapon"
                    ],
                    "not": [
                        "target:animal"
                    ]
                },
                "selector": "{item|_id}-attack",
                "type": "item",
                "value": -1
            },
            {
                "key": "ToggleProperty",
                "label": "The Boastful Hunter is Bored",
                "property": "flags.pf2e.rollOptions.all.boredWeapon"
            },
            {
                "key": "ToggleProperty",
                "label": "The Boastful Hunter is Insulted",
                "property": "flags.pf2e.rollOptions.all.insultedWeapon"
            },
            {
                "key": "FlatModifier",
                "predicate": {
                    "all": [
                        "insultedWeapon"
                    ]
                },
                "selector": "intimidation",
                "type": "item",
                "value": -1
            },
            {
                "key": "FlatModifier",
                "predicate": {
                    "all": [
                        "insultedWeapon"
                    ]
                },
                "selector": "deception",
                "type": "item",
                "value": -1
            },
            {
                "key": "FlatModifier",
                "predicate": {
                    "all": [
                        "insultedWeapon"
                    ]
                },
                "selector": "diplomacy",
                "type": "item",
                "value": -1
            },
            {
                "key": "FlatModifier",
                "predicate": {
                    "all": [
                        "insultedWeapon"
                    ]
                },
                "selector": "{item|_id}-attack",
                "type": "item",
                "value": -1
            },
            {
                "key": "Note",
                "predicate": {
                    "all": [
                        "insultedWeapon"
                    ]
                },
                "selector": "{item|_id}-attack",
                "text": "<p class='compact-text'><strong>Boastful Hunter</strong> All attacks with an insulted <em>boastful hunter</em> incur a <span data-pf2-check='flat' data-pf2-dc='5'>DC 5 flat check</span> misfire chance until the weapon is appeased.</p>"
            }
        ],
        "size": {
            "value": "med"
        },
        "source": {
            "value": "Pathfinder Guns & Gears"
        },
        "specific": {
            "material": null,
            "price": "35 gp",
            "runes": {
                "potency": 1,
                "striking": ""
            },
            "value": true
        },
        "splashDamage": {
            "value": 0
        },
        "stackGroup": {
            "value": ""
        },
        "strikingRune": {
            "value": ""
        },
        "traits": {
            "custom": "",
            "rarity": {
                "value": "rare"
            },
            "value": [
                "concussive",
                "fatal-aim-d12"
            ]
        },
        "usage": {
            "value": "held-in-one-hand"
        },
        "weight": {
            "value": "1"
        }
    },
    "effects": [],
    "flags": {},
    "img": "systems/pf2e/icons/equipment/weapons/jezail.webp",
    "name": "Boastful Hunter",
    "type": "weapon"
}
