{
    "_id": "TJsmB2aHk9Yogqup",
    "data": {
        "armor": {
            "value": 2
        },
        "baseItem": "studded-leather-armor",
        "brokenThreshold": {
            "value": null
        },
        "bulkCapacity": {
            "value": ""
        },
        "category": "light",
        "check": {
            "value": -1
        },
        "collapsed": {
            "value": false
        },
        "containerId": {
            "value": null
        },
        "description": {
            "value": "<p>This <em>+2 greater resilient @Compendium[pf2e.equipment-srd.Studded Leather Armor]{Studded Leather Armor}</em> is made of hardened fungus. Every day the armor grows dozens of unusual mushrooms that can be used for cooking, infused reagents, or common spell material components.</p>\n<hr />\n<p><strong>Activate</strong> <span class=\"pf2-icon\">r</span> or <span class=\"pf2-icon\">a</span> Envision;</p>\n<p><strong>Frequency</strong> once per day;</p>\n<p><strong>Trigger</strong> You are hit by a melee, ranged, or spell attack;</p>\n<p><strong>Effect</strong> The attack misses you, dealing no damage as you transform into a cloud of spores. You gain the benefits of a <em>@Compendium[pf2e.spells-srd.Gaseous Form]{Gaseous Form}</em> spell for 1 minute.</p>\n<p>For the duration, a cloud of deadly spores surrounds you. Each breathing creature that begins its turn within 10 feet of you takes [[/r {6d8}[poison]]]{6d8 poison damage} (<span data-pf2-check=\"fortitude\" data-pf2-label=\"Fungal Armor Spores DC\" data-pf2-dc=\"35\" data-pf2-show-dc=\"gm\">basic Fortitude</span>).</p>\n<p>You can @Compendium[pf2e.actionspf2e.Dismiss]{Dismiss} the cloud form.</p>\n<hr />\n<p><strong>Craft Requirements</strong> Supply a casting of <em>@Compendium[pf2e.spells-srd.Cloudkill]{Cloudkill}</em> and <em>gaseous form</em>.</p>"
        },
        "dex": {
            "value": 3
        },
        "equipped": {
            "value": false
        },
        "equippedBulk": {
            "value": "1"
        },
        "group": "leather",
        "hardness": {
            "value": null
        },
        "hp": {
            "value": null
        },
        "identification": {
            "misidentified": {},
            "status": "identified",
            "unidentified": {
                "data": {
                    "description": {
                        "value": ""
                    }
                },
                "img": "",
                "name": ""
            }
        },
        "invested": {
            "value": false
        },
        "level": {
            "value": 15
        },
        "maxHp": {
            "value": null
        },
        "negateBulk": {
            "value": "0"
        },
        "potencyRune": {
            "value": 2
        },
        "preciousMaterial": {
            "value": null
        },
        "preciousMaterialGrade": {
            "value": null
        },
        "price": {
            "value": "7200 gp"
        },
        "propertyRune1": {
            "value": ""
        },
        "propertyRune2": {
            "value": ""
        },
        "propertyRune3": {
            "value": ""
        },
        "propertyRune4": {
            "value": ""
        },
        "quantity": {
            "value": 1
        },
        "resiliencyRune": {
            "value": "greaterResilient"
        },
        "rules": [],
        "size": {
            "value": "med"
        },
        "source": {
            "value": "Pathfinder #161: Belly of the Black Whale"
        },
        "speed": {
            "value": 0
        },
        "stackGroup": {
            "value": ""
        },
        "strength": {
            "value": 12
        },
        "traits": {
            "custom": "",
            "rarity": {
                "value": "rare"
            },
            "value": [
                "invested",
                "magical",
                "transmutation"
            ]
        },
        "usage": {
            "value": "wornarmor"
        },
        "weight": {
            "value": "2"
        }
    },
    "effects": [],
    "flags": {},
    "img": "systems/pf2e/icons/equipment/armor/specific-magic-armor/fungal-armor.webp",
    "name": "Fungal Armor",
    "type": "armor"
}
