{
    "_id": "vHZSx5f093Wrivzn",
    "data": {
        "armor": {
            "value": 2
        },
        "baseItem": "chain-shirt",
        "brokenThreshold": {
            "value": null
        },
        "bulkCapacity": {
            "value": ""
        },
        "category": "light",
        "check": {
            "value": -1
        },
        "collapsed": {
            "value": false
        },
        "containerId": {
            "value": ""
        },
        "description": {
            "value": "<p>This <em>+1 silver chain </em>shirt has a collar adorned with stitched images of the phases of the moon. You can see in moonlight as though you had low-light vision.</p>\n<p><strong>Activate</strong> <span class=\"pf2-icon\">A</span> Interact</p>\n<p><strong>Frequency</strong> one per day</p>\n<p><strong>Effect</strong> You touch the stitched image of the new moon on the armor's collar and suppress the dazzled condition for 1 minute.</p>\n<p><strong>Craft Requirements</strong> The initial raw materials must include 33 gp of silver.</p>"
        },
        "dex": {
            "value": 3
        },
        "equipped": {
            "value": false
        },
        "equippedBulk": {
            "value": "2"
        },
        "group": "chain",
        "hardness": {
            "value": null
        },
        "hp": {
            "value": null
        },
        "identification": {
            "misidentified": {},
            "status": "identified",
            "unidentified": {
                "data": {
                    "description": {
                        "value": ""
                    }
                },
                "img": "",
                "name": ""
            }
        },
        "invested": {
            "value": false
        },
        "level": {
            "value": 7
        },
        "maxHp": {
            "value": null
        },
        "negateBulk": {
            "value": "0"
        },
        "potency": {},
        "potencyRune": {
            "value": 1
        },
        "preciousMaterial": {
            "value": "silver"
        },
        "preciousMaterialGrade": {
            "value": "low"
        },
        "price": {
            "value": "360 gp"
        },
        "propertyRune1": {
            "value": ""
        },
        "propertyRune2": {
            "value": ""
        },
        "propertyRune3": {
            "value": ""
        },
        "propertyRune4": {
            "value": ""
        },
        "quantity": {
            "value": 1
        },
        "resiliencyRune": {
            "value": ""
        },
        "rules": [],
        "size": {
            "value": "med"
        },
        "source": {
            "value": "Pathfinder Core Rulebook"
        },
        "speed": {
            "value": 0
        },
        "stackGroup": {
            "value": ""
        },
        "strength": {
            "value": 12
        },
        "traits": {
            "custom": "",
            "rarity": {
                "value": "common"
            },
            "value": [
                "divination",
                "flexible",
                "invested",
                "magical",
                "noisy"
            ]
        },
        "usage": {
            "value": "wornarmor"
        },
        "weight": {
            "value": "3"
        }
    },
    "effects": [],
    "flags": {},
    "img": "systems/pf2e/icons/equipment/armor/specific-magic-armor/moonlit-chain.webp",
    "name": "Moonlit Chain",
    "type": "armor"
}
