{
    "_id": "U8vVCE2ePjyca666",
    "data": {
        "MAP": {
            "value": ""
        },
        "baseItem": "staff",
        "bonus": {
            "value": 0
        },
        "bonusDamage": {
            "value": 0
        },
        "brokenThreshold": {
            "value": 0
        },
        "bulkCapacity": {
            "value": ""
        },
        "category": "simple",
        "collapsed": {
            "value": false
        },
        "containerId": {
            "value": ""
        },
        "damage": {
            "damageType": "bludgeoning",
            "dice": 1,
            "die": "d4",
            "value": ""
        },
        "description": {
            "value": "<p>A large, stylized symbol of an eye adorns the top of this wooden staff, representing the watchful eye of the divine powers. The bearer of the staff can guide and protect, seeing bounties and tragedies that could befall them in the future.</p>\n<p>When wielding this staff, you gain a +1 item bonus on Survival checks to Sense Direction or Subsist, and to Religion checks to Recall Knowledge.</p>\n<p><strong>Activate</strong> Cast a Spell</p>\n<p><strong>Effect</strong> You expend a number of charges from the staff to cast a spell from its list.</p>\n<ul>\n<li><strong>Cantrip</strong> <em>@Compendium[pf2e.spells-srd.Guidance]{Guidance}</em>, <em>@Compendium[pf2e.spells-srd.Light]{Light}</em></li>\n<li><strong>1st</strong> @<em>@Compendium[pf2e.spells-srd.Bless]{Bless}</em>, <em>@Compendium[pf2e.spells-srd.Create Water]{Create Water}</em></li>\n<li><strong>2nd</strong> <em>@Compendium[pf2e.spells-srd.Augury]{Augury}</em>, <em>@Compendium[pf2e.spells-srd.Create Food]{Create Food}</em>, <em>@Compendium[pf2e.spells-srd.See Invisibility]{See Invisibility}</em>, <em>@Compendium[pf2e.spells-srd.Status]{Status}</em></li>\n<li><strong>3rd</strong> <em>@Compendium[pf2e.spells-srd.Safe Passage]{Safe Passage}</em>, <em>@Compendium[pf2e.spells-srd.Wanderer's Guide]{Wanderer's Guide}</em></li>\n<li><strong>4th</strong> <em>@Compendium[pf2e.spells-srd.Remove Curse]{Remove Curse}</em>, <em>@Compendium[pf2e.spells-srd.Spell Immunity]{Spell Immunity}</em>, <em>@Compendium[pf2e.spells-srd.Status]{Status}</em></li>\n<li><strong>5th</strong> <em>@Compendium[pf2e.spells-srd.Prying Eye]{Prying Eye}</em>, <em>@Compendium[pf2e.spells-srd.See Invisibility]{See Invisibility}</em>, <em>@Compendium[pf2e.spells-srd.Spell Immunity]{Spell Immunity}</em></li>\n<li><strong>6th</strong> <em>@Compendium[pf2e.spells-srd.Spell Immunity]{Spell Immunity}</em>, <em>@Compendium[pf2e.spells-srd.Scintillating Safeguard]{Scintillating Safeguard}</em>, <em>@Compendium[pf2e.spells-srd.True Seeing]{True Seeing}</em></li>\n</ul>\n<p><strong>Craft Requirements</strong> Supply one casting of all listed levels of all listed spells.</p>\n<hr />\n<p>Automatically applied effects:</p>\n<ul>\n<li>+1 item bonus to Survival checks to Sense Direction or Subsist,</li>\n<li>+1 item bonus to Religion checks to Recall Knowledge</li>\n</ul>"
        },
        "equipped": {
            "value": false
        },
        "equippedBulk": {
            "value": ""
        },
        "group": "club",
        "hands": {
            "value": ""
        },
        "hardness": {
            "value": 0
        },
        "hp": {
            "value": 0
        },
        "identification": {
            "misidentified": {},
            "status": "identified",
            "unidentified": {
                "data": {
                    "description": {
                        "value": ""
                    }
                },
                "img": "",
                "name": ""
            }
        },
        "invested": {
            "value": false
        },
        "level": {
            "value": 14
        },
        "maxHp": {
            "value": 0
        },
        "negateBulk": {
            "value": "0"
        },
        "potencyRune": {
            "value": null
        },
        "preciousMaterial": {
            "value": ""
        },
        "preciousMaterialGrade": {
            "value": ""
        },
        "price": {
            "value": "4,100 gp"
        },
        "property1": {
            "critDamage": "",
            "critDamageType": "",
            "critDice": null,
            "critDie": "",
            "criticalConditionType": "",
            "criticalConditionValue": null,
            "damageType": "",
            "dice": null,
            "die": "",
            "strikeConditionType": "",
            "strikeConditionValue": null,
            "value": ""
        },
        "propertyRune1": {
            "value": ""
        },
        "propertyRune2": {
            "value": ""
        },
        "propertyRune3": {
            "value": ""
        },
        "propertyRune4": {
            "value": ""
        },
        "quantity": {
            "value": 1
        },
        "range": null,
        "reload": {
            "value": ""
        },
        "rules": [
            {
                "key": "FlatModifier",
                "label": "Staff of Providence (sense direction & subsist)",
                "predicate": {
                    "all": [
                        "action:sense-direction",
                        "subsist"
                    ]
                },
                "selector": "survival",
                "type": "item",
                "value": 1
            },
            {
                "key": "FlatModifier",
                "label": "Staff of Providence (recall knowledge)",
                "predicate": {
                    "all": [
                        "action:recall-knowledge"
                    ]
                },
                "selector": "religion",
                "type": "item",
                "value": 1
            }
        ],
        "size": {
            "value": "med"
        },
        "source": {
            "value": "Pathfinder Advanced Player's Guide"
        },
        "splashDamage": {
            "value": 0
        },
        "stackGroup": {
            "value": ""
        },
        "strikingRune": {
            "value": ""
        },
        "traits": {
            "custom": "",
            "rarity": {
                "value": "common"
            },
            "value": [
                "divination",
                "magical",
                "staff",
                "two-hand-d8"
            ]
        },
        "usage": {
            "value": "held-in-one-hand"
        },
        "weight": {
            "value": "1"
        }
    },
    "effects": [],
    "flags": {},
    "img": "systems/pf2e/icons/equipment/staves/staff-of-providence.webp",
    "name": "Staff of Providence (Major)",
    "type": "weapon"
}
