{
    "_id": "knoWZfTiLY7xGwhB",
    "data": {
        "attributes": {
            "ac": {
                "value": 0
            },
            "hardness": 0,
            "hasHealth": true,
            "hp": {
                "details": "",
                "max": 0,
                "temp": 0,
                "tempmax": 0,
                "value": 0
            },
            "stealth": {
                "details": "<p>(expert)</p>",
                "value": 26
            }
        },
        "creatureType": "",
        "details": {
            "description": "<p>A hidden rune on the floor under the filth, just past the threshold, triggers an ersatz ghost.</p>",
            "disable": "<p>DC 28 Thievery (expert) to remove the rune without triggering it, or dispel magic (4th level; counteract DC 26) to dispel the rune</p>",
            "isComplex": false,
            "level": {
                "value": 8
            },
            "reset": "<p>The trap automatically resets after 1 hour.</p>",
            "routine": ""
        },
        "saves": {
            "fortitude": {
                "saveDetail": "",
                "value": 0
            },
            "reflex": {
                "saveDetail": "",
                "value": 0
            },
            "will": {
                "saveDetail": "",
                "value": 0
            }
        },
        "source": {
            "value": "Pathfinder #164: Hands of the Devil"
        },
        "statusEffects": [],
        "traits": {
            "ci": [],
            "di": {
                "custom": "",
                "selected": {},
                "value": []
            },
            "dr": [],
            "dv": [],
            "rarity": {
                "value": "common"
            },
            "size": {
                "value": "med"
            },
            "traits": {
                "custom": "",
                "value": [
                    "magical"
                ]
            }
        }
    },
    "effects": [],
    "flags": {},
    "img": "systems/pf2e/icons/default-icons/hazard.svg",
    "items": [
        {
            "_id": "x2mDaJtGWiO1eS56",
            "data": {
                "actionCategory": {
                    "value": "offensive"
                },
                "actionType": {
                    "value": "reaction"
                },
                "actions": {
                    "value": null
                },
                "description": {
                    "value": "<p data-visibility=\"gm\"><strong>Trigger</strong> A living creature moves over the rune</p>\n<p><strong>Effect</strong> A frightful moan echoes through the room, and a hoarse telepathic voice shouts, “Get out!” This shout deals [[/r {6d12}[mental]]]{6d12 mental damage} to creatures in the room (<span data-pf2-check=\"will\" data-pf2-dc=\"26\" data-pf2-traits=\"auditory,enchantment,incapacitation,linguistic,mental,damaging-effect\" data-pf2-label=\"Counterfeit Haunting DC\" data-pf2-show-dc=\"gm\">basic Will</span> save). Creatures who fail this saving throw must immediately leave the room and can't willingly reenter it for 1 minute (1 hour on a critical failure).</p>"
                },
                "requirements": {
                    "value": ""
                },
                "rules": [],
                "slug": null,
                "source": {
                    "value": ""
                },
                "traits": {
                    "custom": "",
                    "rarity": {
                        "value": "common"
                    },
                    "value": [
                        "auditory",
                        "enchantment",
                        "incapacitation",
                        "linguistic",
                        "mental"
                    ]
                },
                "trigger": {
                    "value": ""
                },
                "weapon": {
                    "value": ""
                }
            },
            "effects": [],
            "flags": {},
            "img": "systems/pf2e/icons/actions/Reaction.webp",
            "name": "Counterfeit Haunting",
            "sort": 100000,
            "type": "action"
        }
    ],
    "name": "Painful Suggestion Trap",
    "token": {
        "disposition": 0,
        "height": 1,
        "img": "systems/pf2e/icons/default-icons/hazard.svg",
        "name": "Painful Suggestion Trap",
        "width": 1
    },
    "type": "hazard"
}
