{
    "_id": "VjVKGrVXJd7HRn5h",
    "data": {
        "attributes": {
            "ac": {
                "value": 19
            },
            "hardness": 5,
            "hasHealth": true,
            "hp": {
                "details": "",
                "max": 20,
                "temp": 0,
                "value": 20
            },
            "stealth": {
                "details": "<p>(expert)</p>",
                "value": 10
            }
        },
        "creatureType": "",
        "details": {
            "description": "<p>The frame splinters as the door flings open, the force hitting those nearby.</p>",
            "disable": "<p><span data-pf2-check=\"athletics\" data-pf2-traits=\"chaotic,hazard,magical,trap\" data-pf2-label=\"Hold the Door Shut DC\" data-pf2-dc=\"17\" data-pf2-show-dc=\"gm\">Athletics</span> (trained) to hold the door shut against the force, or <span data-pf2-check=\"thievery\" data-pf2-traits=\"chaotic,hazard,magical,trap\" data-pf2-label=\"Relieve Door Pressure DC\" data-pf2-dc=\"18\" data-pf2-show-dc=\"gm\">Thievery</span> (trained) to deftly relieve pressure from the door</p>",
            "isComplex": false,
            "level": {
                "value": 1
            },
            "reset": "",
            "routine": ""
        },
        "saves": {
            "fortitude": {
                "saveDetail": "",
                "value": 10
            },
            "reflex": {
                "saveDetail": "",
                "value": 11
            },
            "will": {
                "saveDetail": "",
                "value": 0
            }
        },
        "source": {
            "value": "Pathfinder Society Scenario #2-09: The Seven Secrets of Dacilane Academy"
        },
        "statusEffects": [],
        "traits": {
            "ci": [],
            "di": {
                "custom": "",
                "selected": {},
                "value": [
                    "critical-hits",
                    "object-immunities",
                    "precision"
                ]
            },
            "dr": [],
            "dv": [],
            "rarity": {
                "value": "common"
            },
            "size": {
                "value": "med"
            },
            "traits": {
                "custom": "",
                "value": [
                    "chaotic",
                    "magical",
                    "trap"
                ]
            }
        }
    },
    "effects": [],
    "flags": {},
    "img": "systems/pf2e/icons/default-icons/hazard.svg",
    "items": [
        {
            "_id": "Xk8bQOva3Sg0jmKD",
            "data": {
                "actionCategory": {
                    "value": "offensive"
                },
                "actionType": {
                    "value": "reaction"
                },
                "actions": {
                    "value": null
                },
                "description": {
                    "value": "<p data-visibility=\"gm\"><strong>Trigger</strong> A creature touches any part of the door.</p>\n<p><strong>Effect</strong> The door flies open with incredible force. The triggering creature must attempt a <span data-pf2-check=\"reflex\" data-pf2-traits=\"damaging-effect,chaotic,hazard,trap,magical\" data-pf2-label=\"Slam DC\" data-pf2-dc=\"17\" data-pf2-show-dc=\"gm\">Reflex</span> save as the door explodes outward into them, which deals [[/r {3d8}[bludgeoning]]]{3d8 bludgeoning damage}.</p>\n<div data-visibility=\"gm\"><hr />\n<p><strong>Critical Success</strong> The creature takes no damage.</p>\n<p><strong>Success</strong> The creature takes half damage.</p>\n<p><strong>Failure</strong> The creature takes full damage and is knocked 10 feet toward the window behind them.</p>\n<p><strong>Critical Failure</strong> The creature takes full damage and is knocked 20 feet toward the window. The window shatters and the PC falls 5 feet before colliding with the ground, taking an additional [[/r {1d6}[piercing]]]{1d6 piercing damage} from passing through the broken glass.</p>\n</div>"
                },
                "requirements": {
                    "value": ""
                },
                "rules": [],
                "slug": null,
                "source": {
                    "value": ""
                },
                "traits": {
                    "custom": "",
                    "rarity": {
                        "value": "common"
                    },
                    "value": []
                },
                "trigger": {
                    "value": ""
                }
            },
            "effects": [],
            "flags": {},
            "img": "systems/pf2e/icons/actions/Reaction.webp",
            "name": "Slam",
            "sort": 0,
            "type": "action"
        }
    ],
    "name": "Chaotic Door (1-2)",
    "token": {
        "disposition": 0,
        "height": 1,
        "img": "systems/pf2e/icons/default-icons/hazard.svg",
        "name": "Chaotic Door",
        "width": 1
    },
    "type": "hazard"
}
