{
    "_id": "6Alm4mLj3ORxCXC2",
    "data": {
        "actionCategory": {
            "value": "defensive"
        },
        "actionType": {
            "value": "passive"
        },
        "actions": {
            "value": null
        },
        "description": {
            "value": "<p>@Template[type:emanation|distance:0]{0 feet} @Compendium[pf2e.bestiary-ability-glossary-srd.Aura]{Aura} <span data-pf2-check=\"will\" data-pf2-dc=\"\" data-pf2-traits=\"aura,emotion,fear,mental\" data-pf2-label=\"Cowering Fear DC\" data-pf2-show-dc=\"gm\">Will</span></p>\n<p>A ravener's frightful presence causes creatures to cower in fear as well. As long as a creature is at least @Compendium[pf2e.conditionitems.Frightened]{Frightened 2} or more as a result of the ravener's frightful presence, it is also @Compendium[pf2e.conditionitems.Immobilized]{Immobilized} from the fear.</p>\n<p>@Localize[PF2E.NPC.Abilities.Glossary.FrightfulPresence]</p>"
        },
        "requirements": {
            "value": ""
        },
        "rules": [],
        "source": {
            "value": "Pathfinder Bestiary 2"
        },
        "traits": {
            "custom": "",
            "rarity": {
                "value": "common"
            },
            "value": [
                "aura",
                "emotion",
                "fear",
                "mental"
            ]
        },
        "trigger": {
            "value": ""
        }
    },
    "effects": [],
    "flags": {},
    "img": "systems/pf2e/icons/actions/Passive.webp",
    "name": "(Ravener) Cowering Fear",
    "type": "action"
}
