{
    "_id": "vFXt9SSkNst7qD6v",
    "content": "<table class=\"pf2-table\">\n<thead>\n<tr>\n<th>\n<h3><strong>Name</strong></h3>\n</th>\n<th>\n<h3><strong>Crit Effect</strong></h3>\n</th>\n<th>\n<h3><strong>Type</strong></h3>\n</th>\n</tr>\n</thead>\n<tbody>\n<tr>\n<td>Butterfingers</td>\n<td>You drop the weapon you made the attack with.</td>\n<td>\n<h3>Melee</h3>\n</td>\n</tr>\n<tr>\n<td>Snapped String</td>\n<td>If the attack used a weapon in the bow group, the string snaps, requiring 3 Interact actions to fix.</td>\n<td>\n<h3>Ranged</h3>\n</td>\n</tr>\n<tr>\n<td>Torn Muscle</td>\n<td>Until healed, you are enfeebled 1.</td>\n<td>\n<h3>Unarmed</h3>\n</td>\n</tr>\n<tr>\n<td>Magic Fatigue</td>\n<td>You can't cast any spells until the end of your next turn.</td>\n<td>\n<h3>Spell</h3>\n</td>\n</tr>\n</tbody>\n</table>\n<h3 style=\"text-align: left;\"> </h3>",
    "flags": {},
    "name": "Critical Fumble Deck #13",
    "permission": {
        "default": 0
    }
}
