{
    "_id": "ZSCBm3JFU6tFtqvL",
    "data": {
        "attributes": {
            "ac": {
                "value": 0
            },
            "hardness": 0,
            "hasHealth": false,
            "hp": {
                "details": "",
                "max": 0,
                "temp": 0,
                "value": 0
            },
            "stealth": {
                "details": "<p>(trained)</p>",
                "value": 10
            }
        },
        "creatureType": "",
        "customModifiers": {},
        "details": {
            "description": "<p>An obscuring fog covers the entirety of the hallway and northern room of the manor's second floor. Anyone moving through the area is subjected to an attack from a ghostly assailant.</p>",
            "disable": "<p><span data-pf2-check=\"acrobatics\" data-pf2-traits=\"complex,haunt\" data-pf2-label=\"Maneuver Through Fog DC\" data-pf2-dc=\"20\" data-pf2-show-dc=\"gm\">Acrobatics</span> to maneuver through the fog, <span data-pf2-check=\"religion\" data-pf2-traits=\"complex,haunt\" data-pf2-label=\"Ward off Spirit DC\" data-pf2-dc=\"18\" data-pf2-show-dc=\"gm\">Religion</span> to ward off the spirit, or <span data-pf2-check=\"stealth\" data-pf2-traits=\"complex,haunt\" data-pf2-label=\"Move Through Fog Without Attracting Attention DC\" data-pf2-dc=\"20\" data-pf2-show-dc=\"gm\">Stealth</span> to move through the fog without attracting attention.</p>\n<p>Disabling the haunt requires two successful checks, and each attempt takes two actions.</p>",
            "isComplex": true,
            "level": {
                "value": 3
            },
            "reset": "<p>The haunt lasts until disabled. It re-forms after 1 hour unless Eloise's ghost is put to permanent rest.</p>",
            "routine": "<p>(2 actions) The haunt uses an action to manifest an illusory shadow beside a creature ending its move in the fog, then attempts a spectral touch Strike against that creature. The shadow disappears after the Strike.</p>"
        },
        "saves": {
            "fortitude": {
                "saveDetail": "",
                "value": 0
            },
            "reflex": {
                "saveDetail": "",
                "value": 0
            },
            "will": {
                "saveDetail": "",
                "value": 0
            }
        },
        "source": {
            "value": ""
        },
        "statusEffects": [],
        "traits": {
            "ci": [],
            "di": {
                "custom": "",
                "selected": {},
                "value": []
            },
            "dr": [],
            "dv": [],
            "rarity": {
                "value": "uncommon"
            },
            "size": {
                "value": "med"
            },
            "traits": {
                "custom": "",
                "value": [
                    "haunt"
                ]
            }
        }
    },
    "effects": [],
    "flags": {},
    "img": "systems/pf2e/icons/default-icons/hazard.svg",
    "items": [
        {
            "_id": "7e98zwqpmlz4vp2a",
            "data": {
                "actionCategory": {
                    "value": "offensive"
                },
                "actionType": {
                    "value": "passive"
                },
                "actions": {
                    "value": null
                },
                "description": {
                    "value": "<p>The area of the haunt is difficult terrain.</p>"
                },
                "requirements": {
                    "value": ""
                },
                "rules": [],
                "slug": null,
                "source": {
                    "value": ""
                },
                "traits": {
                    "custom": "",
                    "rarity": {
                        "value": "common"
                    },
                    "value": []
                },
                "trigger": {
                    "value": ""
                }
            },
            "effects": [],
            "flags": {},
            "img": "systems/pf2e/icons/actions/Passive.webp",
            "name": "Gaseous Sludge",
            "sort": 0,
            "type": "action"
        },
        {
            "_id": "myktiol2vlodh7y9",
            "data": {
                "actionCategory": {
                    "value": "offensive"
                },
                "actionType": {
                    "value": "reaction"
                },
                "actions": {
                    "value": null
                },
                "description": {
                    "value": "<p data-visibility=\"gm\"><strong>Trigger</strong> A creature enters the haunt's area</p>\n<p><strong>Effect</strong> A spectral figure manifests in the fog adjacent to the target and makes a spectral touch Strike against the creature. The haunt rolls initiative.</p>"
                },
                "requirements": {
                    "value": ""
                },
                "rules": [],
                "slug": null,
                "source": {
                    "value": ""
                },
                "traits": {
                    "custom": "",
                    "rarity": {
                        "value": "common"
                    },
                    "value": [
                        "fear",
                        "negative",
                        "occult"
                    ]
                },
                "trigger": {
                    "value": ""
                }
            },
            "effects": [],
            "flags": {},
            "img": "systems/pf2e/icons/actions/Reaction.webp",
            "name": "Spectral Stab",
            "sort": 0,
            "type": "action"
        },
        {
            "_id": "Td7JbrnkAZYC59dl",
            "data": {
                "attack": {
                    "value": ""
                },
                "attackEffects": {
                    "value": []
                },
                "bonus": {
                    "value": 12
                },
                "damageRolls": {
                    "x2xzitw3cmrro3pp1m88": {
                        "damage": "1d10+6",
                        "damageType": "negative"
                    }
                },
                "description": {
                    "value": ""
                },
                "rules": [],
                "slug": null,
                "source": {
                    "value": ""
                },
                "traits": {
                    "custom": "",
                    "rarity": {
                        "value": "common"
                    },
                    "value": []
                },
                "weaponType": {
                    "value": "melee"
                }
            },
            "effects": [],
            "flags": {},
            "img": "systems/pf2e/icons/default-icons/melee.svg",
            "name": "Spectral touch",
            "sort": 0,
            "type": "melee"
        }
    ],
    "name": "Eloise's Last Gasp (1-2)",
    "token": {
        "disposition": 0,
        "height": 1,
        "img": "systems/pf2e/icons/default-icons/hazard.svg",
        "name": "Eloise's Last Gasp",
        "width": 1
    },
    "type": "hazard"
}
