{
    "_id": "2KV87ponbWXgGIhZ",
    "data": {
        "actionCategory": {
            "value": "interaction"
        },
        "actionType": {
            "value": "action"
        },
        "actions": {
            "value": 1
        },
        "description": {
            "value": "<p><strong>Frequency</strong> once per round</p>\n<p>You and your eidolon act as one. Either you or your eidolon takes an action or activity using the same number of actions as Act Together, and the other takes a single action.</p>\n<p>For example, if you spent 2 actions to Act Together, you could cast <em>@Compendium[pf2e.spells-srd.Burning Hands]{Burning Hands}</em> (2 actions) and your eidolon could Strike (1 action), or your eidolon could use its Breath Weapon (2 actions) and you could Stride (1 action).</p>\n<p>This lets you each use separate exploration activities like @Compendium[pf2e.actionspf2e.Avoid Notice]{Avoid Notice} as you travel.</p>"
        },
        "requirements": {
            "value": ""
        },
        "rules": [],
        "source": {
            "value": ""
        },
        "traits": {
            "custom": "",
            "rarity": {
                "value": "common"
            },
            "value": [
                "summoner",
                "tandem"
            ]
        },
        "trigger": {
            "value": ""
        },
        "weapon": {
            "value": ""
        }
    },
    "effects": [],
    "flags": {},
    "img": "systems/pf2e/icons/actions/OneAction.webp",
    "name": "Act Together",
    "type": "action"
}
