{
    "_id": "Zp6lrCF3JwpdfKyK",
    "data": {
        "abilities": {
            "cha": {
                "mod": 0
            },
            "con": {
                "mod": 5
            },
            "dex": {
                "mod": 2
            },
            "int": {
                "mod": -4
            },
            "str": {
                "mod": 9
            },
            "wis": {
                "mod": 3
            }
        },
        "attributes": {
            "ac": {
                "details": "",
                "value": 35
            },
            "allSaves": {
                "value": ""
            },
            "hp": {
                "details": "",
                "max": 260,
                "temp": 0,
                "value": 260
            },
            "initiative": {
                "ability": "perception"
            },
            "perception": {
                "value": 25
            },
            "shield": {
                "ac": 0,
                "brokenThreshold": 0,
                "hardness": 0,
                "max": 0,
                "value": 0
            },
            "speed": {
                "otherSpeeds": [],
                "value": "40"
            }
        },
        "details": {
            "alignment": {
                "value": "N"
            },
            "blurb": "",
            "creatureType": "Animal",
            "level": {
                "value": 14
            },
            "privateNotes": "",
            "publicNotes": "<p>Widely regarded as the king of the dinosaurs, the tyrannosaurus is a massive predator with a wide mouth filled with viciously sharp teeth. Thundering beasts of fury and hunger, tyrannosauruses are bold and fearless carnivores that eagerly bite off great hunks of large prey and swallow smaller prey-such as most humanoids-in a single gulp. Although they can subsist on carrion, tyrannosaurs prefer live prey.</p>\n<p>Tyrannosauruses stand on two wide, powerful hind legs that allow them to run quickly, and their thick tails provide them with exceptional balance. Although a their small forelimbs are of little use other than to hold prey in place while the predators tear at their victim's flesh with their fearsome jaws, even these forelimbs bear sharp claws several inches long. As fearsome as tyrannosauruses are alone, they sometimes hunt in packs to take down massive prey. Only the most powerful creatures can successfully train tyrannosauruses, and even then, only when they can provide the ravenous beasts with a steady diet of meat.</p>\n<p>Some tribes of giants, particularly cyclopes or more obscure denizens of primeval lands, have even trained tyrannosauruses as mounts or beasts of war. In other places, xulgaths feed these prisoners to these mighty dinosaurs as part of executions or ritual sacrifices. Some xulgath cults even revere tyrannosaurs as incarnations of their violent demonic demigods. For their part, tyrannosaurs who have grown used to having their meals provided in this manner are remarkably well-behaved toward their feeders and keepers. Tyrannosauruses are 50 feet long and weigh 7 tons or more.</p>\n<p>Other variants of the tyrannosaurs include slightly smaller dinosaurs such as allosaurus, or even larger like ravenous giganotosaurus. Even the smallest tyrannosaurs, nanotyrannus, are never than large in size, yet despite this stature, they no less ferocious, and those who would assume that a nanotyrannus is \"safer\" to train do well think again!</p>",
            "source": {
                "value": "Pathfinder #166: Despair on Danger Island"
            }
        },
        "resources": {},
        "saves": {
            "fortitude": {
                "saveDetail": "",
                "value": 27
            },
            "reflex": {
                "saveDetail": "",
                "value": 20
            },
            "will": {
                "saveDetail": "",
                "value": 25
            }
        },
        "traits": {
            "attitude": {
                "value": "hostile"
            },
            "ci": [],
            "di": {
                "custom": "",
                "value": []
            },
            "dr": [],
            "dv": [],
            "languages": {
                "custom": "",
                "selected": [],
                "value": []
            },
            "rarity": {
                "value": "rare"
            },
            "senses": {
                "value": "low-light vision, scent (imprecise) 60 feet"
            },
            "size": {
                "value": "grg"
            },
            "traits": {
                "custom": "",
                "value": [
                    "animal",
                    "dinosaur"
                ]
            }
        }
    },
    "effects": [],
    "flags": {},
    "img": "systems/pf2e/icons/default-icons/npc.svg",
    "items": [
        {
            "_id": "OTDwVMsK2PJ4wuY6",
            "data": {
                "attack": {
                    "value": ""
                },
                "attackEffects": {
                    "custom": "",
                    "value": [
                        "grab"
                    ]
                },
                "bonus": {
                    "value": 28
                },
                "damageRolls": {
                    "94zc7atvygg76wj7obew": {
                        "damage": "3d12+12",
                        "damageType": "piercing"
                    }
                },
                "description": {
                    "value": ""
                },
                "rules": [],
                "slug": null,
                "source": {
                    "value": ""
                },
                "traits": {
                    "custom": "",
                    "rarity": {
                        "value": "common"
                    },
                    "value": [
                        "deadly-d12",
                        "reach-20"
                    ]
                },
                "weaponType": {
                    "value": "melee"
                }
            },
            "effects": [],
            "flags": {},
            "img": "systems/pf2e/icons/default-icons/melee.svg",
            "name": "Jaws",
            "sort": 100000,
            "type": "melee"
        },
        {
            "_id": "orlHVFqe7EEW7ruO",
            "data": {
                "attack": {
                    "value": ""
                },
                "attackEffects": {
                    "value": []
                },
                "bonus": {
                    "value": 28
                },
                "damageRolls": {
                    "1au5rcuboo9fzdcp0ydm": {
                        "damage": "3d10+12",
                        "damageType": "bludgeoning"
                    }
                },
                "description": {
                    "value": ""
                },
                "rules": [],
                "slug": null,
                "source": {
                    "value": ""
                },
                "traits": {
                    "custom": "",
                    "rarity": {
                        "value": "common"
                    },
                    "value": [
                        "reach-15"
                    ]
                },
                "weaponType": {
                    "value": "melee"
                }
            },
            "effects": [],
            "flags": {},
            "img": "systems/pf2e/icons/default-icons/melee.svg",
            "name": "Foot",
            "sort": 200000,
            "type": "melee"
        },
        {
            "_id": "24g2FSPaGiTvJB6C",
            "data": {
                "actionCategory": {
                    "value": "offensive"
                },
                "actionType": {
                    "value": "action"
                },
                "actions": {
                    "value": 1
                },
                "description": {
                    "value": "<p><strong>Requirements</strong> A creature is Grabbed in the tyrannosaurus's jaws.</p>\n<p><strong>Effect</strong> The tyrannosaurus flings the creature into the air up to 10 feet up from its mouth and 20ft away. The creature falls 25 feet (assuming the tyrannosaurus flings it as high as it can) and takes falling damage accordingly. If the flung creature lands on another creature, the creature it lands on takes the same amount of bludgeoning damage. The creature being landed upon can attempt a <span data-pf2-check=\"reflex\" data-pf2-dc=\"29\" data-pf2-traits=\"damaging-effect\" data-pf2-label=\"Fling DC\" data-pf2-show-dc=\"gm\">basic Reflex</span> save.</p>"
                },
                "requirements": {
                    "value": ""
                },
                "rules": [],
                "slug": null,
                "source": {
                    "value": ""
                },
                "traits": {
                    "custom": "",
                    "rarity": {
                        "value": "common"
                    },
                    "value": []
                },
                "trigger": {
                    "value": ""
                },
                "weapon": {
                    "value": ""
                }
            },
            "effects": [],
            "flags": {},
            "img": "systems/pf2e/icons/actions/OneAction.webp",
            "name": "Fling",
            "sort": 300000,
            "type": "action"
        },
        {
            "_id": "2s9UQoF65qVzXgEX",
            "data": {
                "actionCategory": {
                    "value": "offensive"
                },
                "actionType": {
                    "value": "action"
                },
                "actions": {
                    "value": 1
                },
                "description": {
                    "value": "<p><strong>Requirements</strong> The monster's last action was a success with a Strike that lists Grab in its damage entry, or it has a creature grabbed using this action.</p>\n<p><strong>Effect</strong> The monster automatically Grabs the target until the end of the monster's next turn. The creature is grabbed by whichever body part the monster attacked with, and that body part can't be used to Strike creatures until the grab is ended. Using Grab extends the duration of the monster's Grab until the end of its next turn for all creatures grabbed by it. A grabbed creature can use the Escape action to get out of the grab, and the Grab ends for a grabbed creatures if the monster moves away from it.</p>"
                },
                "requirements": {
                    "value": ""
                },
                "rules": [],
                "slug": null,
                "source": {
                    "value": ""
                },
                "traits": {
                    "custom": "",
                    "rarity": {
                        "value": "common"
                    },
                    "value": []
                },
                "trigger": {
                    "value": ""
                },
                "weapon": {
                    "value": ""
                }
            },
            "effects": [],
            "flags": {},
            "img": "systems/pf2e/icons/actions/OneAction.webp",
            "name": "Grab",
            "sort": 400000,
            "type": "action"
        },
        {
            "_id": "9gYASQQf328TmVpW",
            "data": {
                "actionCategory": {
                    "value": "offensive"
                },
                "actionType": {
                    "value": "reaction"
                },
                "actions": {
                    "value": null
                },
                "description": {
                    "value": "<p data-visibility=\"gm\"><strong>Trigger</strong> The tyrannosaurus critically hits a Large or smaller foe with its foot.</p>\n<p><strong>Effect</strong> The creature struck by the foot is knocked prone and the tyrannosaurus uses its foot to hold the creature in place. As long as the tyrannosaurus doesn't move from its position, the pinned creature is Grabbed. A tyrannosaurus gains a +2 circumstance bonus to attack a creature it has pinned in this manner, but it cannot use swallow whole on the target unless it uses its jaws to Grab the victim first.</p>"
                },
                "requirements": {
                    "value": ""
                },
                "rules": [],
                "slug": null,
                "source": {
                    "value": ""
                },
                "traits": {
                    "custom": "",
                    "rarity": {
                        "value": "common"
                    },
                    "value": []
                },
                "trigger": {
                    "value": ""
                },
                "weapon": {
                    "value": ""
                }
            },
            "effects": [],
            "flags": {},
            "img": "systems/pf2e/icons/actions/Reaction.webp",
            "name": "Pin Prey",
            "sort": 500000,
            "type": "action"
        },
        {
            "_id": "9wiqhTppGBReF5MG",
            "data": {
                "actionCategory": {
                    "value": "offensive"
                },
                "actionType": {
                    "value": "action"
                },
                "actions": {
                    "value": 3
                },
                "description": {
                    "value": "<p>Huge or smaller, foot, <span data-pf2-check=\"reflex\" data-pf2-traits=\"damaging-effect\" data-pf2-label=\"Trample DC\" data-pf2-dc=\"34\" data-pf2-show-dc=\"gm\">basic Reflex</span></p>\n<hr />\n<p>The monster Strides up to double its Speed and can move through the spaces of creatures of the listed size, Trampling each creature whose space it enters. The monster can attempt to Trample the same creature only once in a single use of Trample. The monster deals the damage of the listed Strike, but trampled creatures can attempt a basic Reflex save at the listed DC.</p>"
                },
                "requirements": {
                    "value": ""
                },
                "rules": [],
                "slug": "trample",
                "source": {
                    "value": ""
                },
                "traits": {
                    "custom": "",
                    "rarity": {
                        "value": "common"
                    },
                    "value": []
                },
                "trigger": {
                    "value": ""
                },
                "weapon": {
                    "value": ""
                }
            },
            "effects": [],
            "flags": {
                "core": {
                    "sourceId": "Compendium.pf2e.bestiary-ability-glossary-srd.UNah0bxXxkcZjxO3"
                }
            },
            "img": "systems/pf2e/icons/actions/ThreeActions.webp",
            "name": "Trample",
            "sort": 600000,
            "type": "action"
        },
        {
            "_id": "hCSgZRqIcBMpqV5q",
            "data": {
                "actionCategory": {
                    "value": "offensive"
                },
                "actionType": {
                    "value": "action"
                },
                "actions": {
                    "value": 2
                },
                "description": {
                    "value": "<p>The tyrannosaurus sweeps its tail in a 15-foot cone, dealing [[/r {4d8+12}[bludgeoning]]]{4d8+12 bludgeoning damage} to all creatures in the cone. Creatures in the area must attempt a <span data-pf2-check=\"reflex\" data-pf2-traits=\"damaging-effect\" data-pf2-label=\"Tail Swipe DC\" data-pf2-dc=\"34\" data-pf2-show-dc=\"gm\">Reflex</span> save.</p>\n<hr />\n<p><strong>Critical Success</strong> The creature is unaffected.</p>\n<p><strong>Success</strong> The creature takes half damage.</p>\n<p><strong>Failure</strong> The creature takes full damage and falls prone.</p>\n<p><strong>Critical Failure</strong> The creature takes double damage, is pushed back 10 feet, and falls prone.</p>"
                },
                "requirements": {
                    "value": ""
                },
                "rules": [],
                "slug": null,
                "source": {
                    "value": ""
                },
                "traits": {
                    "custom": "",
                    "rarity": {
                        "value": "common"
                    },
                    "value": []
                },
                "trigger": {
                    "value": ""
                },
                "weapon": {
                    "value": ""
                }
            },
            "effects": [],
            "flags": {},
            "img": "systems/pf2e/icons/actions/TwoActions.webp",
            "name": "Tail Swipe",
            "sort": 700000,
            "type": "action"
        },
        {
            "_id": "LqiyG9U9vgSjT5du",
            "data": {
                "actionCategory": {
                    "value": "offensive"
                },
                "actionType": {
                    "value": "action"
                },
                "actions": {
                    "value": 1
                },
                "description": {
                    "value": "<p>Medium, 4d6+8 bludgeoning, Rupture 34</p>\n<hr />\n<p>@Localize[PF2E.NPC.Abilities.Glossary.SwallowWhole]</p>"
                },
                "requirements": {
                    "value": ""
                },
                "rules": [],
                "slug": "swallow-whole",
                "source": {
                    "value": ""
                },
                "traits": {
                    "custom": "",
                    "rarity": {
                        "value": "common"
                    },
                    "value": [
                        "attack"
                    ]
                },
                "trigger": {
                    "value": ""
                },
                "weapon": {
                    "value": ""
                }
            },
            "effects": [],
            "flags": {
                "core": {
                    "sourceId": "Compendium.pf2e.bestiary-ability-glossary-srd.uJSseLa57HZYSMUu"
                }
            },
            "img": "systems/pf2e/icons/actions/OneAction.webp",
            "name": "Swallow Whole",
            "sort": 800000,
            "type": "action"
        },
        {
            "_id": "1ZcHb19IT1FdkgXS",
            "data": {
                "description": {
                    "value": ""
                },
                "item": {
                    "value": 0
                },
                "mod": {
                    "value": 20
                },
                "proficient": {
                    "value": 0
                },
                "rules": [],
                "slug": null,
                "source": {
                    "value": ""
                },
                "traits": {
                    "custom": "",
                    "rarity": {
                        "value": "common"
                    },
                    "value": []
                }
            },
            "effects": [],
            "flags": {},
            "img": "systems/pf2e/icons/default-icons/lore.svg",
            "name": "Acrobatics",
            "sort": 900000,
            "type": "lore"
        },
        {
            "_id": "ln28qswMZQENO3eH",
            "data": {
                "description": {
                    "value": ""
                },
                "item": {
                    "value": 0
                },
                "mod": {
                    "value": 30
                },
                "proficient": {
                    "value": 0
                },
                "rules": [],
                "slug": null,
                "source": {
                    "value": ""
                },
                "traits": {
                    "custom": "",
                    "rarity": {
                        "value": "common"
                    },
                    "value": []
                }
            },
            "effects": [],
            "flags": {},
            "img": "systems/pf2e/icons/default-icons/lore.svg",
            "name": "Athletics",
            "sort": 1000000,
            "type": "lore"
        }
    ],
    "name": "Tyrannosaurus Imperator",
    "token": {
        "disposition": -1,
        "height": 4,
        "img": "systems/pf2e/icons/default-icons/npc.svg",
        "name": "Tyrannosaurus Imperator",
        "width": 4
    },
    "type": "npc"
}
