{
    "_id": "zBLrZE5aCkpaTK2N",
    "data": {
        "actionCategory": {
            "value": ""
        },
        "actionType": {
            "value": "passive"
        },
        "actions": {
            "value": null
        },
        "description": {
            "value": "<p>Another animal joins you in your travels. It is a young animal companion that has the minion trait. See Beastmaster Animal Companions (in Beastmaster Dedication) for rules on how having multiple animal companions works.</p>\n<p><strong>Special</strong> You can select this feat more than once, gaining an additional animal companion each time, to a maximum of four total companions (including the one you gained from Beastmaster Dedication and possibly one you gained from sources other than the beastmaster archetype).</p>"
        },
        "featType": {
            "value": "archetype"
        },
        "level": {
            "value": 4
        },
        "prerequisites": {
            "value": [
                {
                    "value": "Beastmaster Dedication"
                }
            ]
        },
        "rules": [],
        "source": {
            "value": "Pathfinder Advanced Player's Guide"
        },
        "traits": {
            "custom": "",
            "rarity": {
                "value": "common"
            },
            "value": [
                "archetype"
            ]
        }
    },
    "effects": [],
    "flags": {},
    "img": "systems/pf2e/icons/features/feats/feats.webp",
    "name": "Additional Companion",
    "type": "feat"
}
