{
    "_id": "SGgK4BoUooA0HhTj",
    "data": {
        "actionCategory": {
            "value": ""
        },
        "actionType": {
            "value": "action"
        },
        "actions": {
            "value": 3
        },
        "description": {
            "value": "<p><strong>Requirements</strong> You are wielding a melee weapon in two hands.</p>\n<hr />\n<p>You attack all nearby adversaries. Make a melee Strike with the required weapon against each enemy within your melee reach. Each attack counts toward your multiple attack penalty, but don't increase your penalty until you have made all your attacks.</p>"
        },
        "featType": {
            "value": "archetype"
        },
        "level": {
            "value": 16
        },
        "prerequisites": {
            "value": [
                {
                    "value": "Mauler Dedication"
                }
            ]
        },
        "rules": [],
        "source": {
            "value": "Pathfinder Advanced Player's Guide"
        },
        "traits": {
            "custom": "",
            "rarity": {
                "value": "common"
            },
            "value": [
                "archetype",
                "flourish",
                "open"
            ]
        }
    },
    "effects": [],
    "flags": {},
    "img": "systems/pf2e/icons/features/feats/feats.webp",
    "name": "Avalanche Strike",
    "type": "feat"
}
