{
    "_id": "kmIgbWLbaarqmMaY",
    "data": {
        "actionCategory": {
            "value": ""
        },
        "actionType": {
            "value": "passive"
        },
        "actions": {
            "value": null
        },
        "description": {
            "value": "<p>Your innate ability to fascinate others develops into full-fledged spellcasting. This spellcasting comes naturally and instinctively to you, rather than as a product of training. Choose a 1st-level occult spell from either the enchantment or illusion school. You can Cast this Spell as an occult innate spell. At 6th level, you gain a 2nd-level spell, and at 8th level, you gain a 3rd-level spell. Each of these spells must be from either the enchantment or illusion school.</p>"
        },
        "featType": {
            "value": "archetype"
        },
        "level": {
            "value": 4
        },
        "location": "",
        "prerequisites": {
            "value": [
                {
                    "value": "Captivator Dedication"
                }
            ]
        },
        "rules": [],
        "source": {
            "value": ""
        },
        "traits": {
            "custom": "",
            "rarity": {
                "value": "common"
            },
            "value": [
                "archetype"
            ]
        }
    },
    "effects": [],
    "flags": {},
    "img": "systems/pf2e/icons/default-icons/feats.webp",
    "name": "Basic Captivator Spellcasting",
    "type": "feat"
}
