{
    "_id": "ADVrDjp75fr2BYMa",
    "data": {
        "actionCategory": {
            "value": ""
        },
        "actionType": {
            "value": "passive"
        },
        "actions": {
            "value": null
        },
        "description": {
            "value": "<p>Your magic is drawn to your persistent creations. While you are within 30 feet of and have line of effect to your persistent creation, you can use it as the origin point for your line or cone spells. For instance, a <em>@Compendium[pf2e.spells-srd.Lightning Bolt]{Lightning Bolt}</em> could originate from the persistent creation rather than from you.</p>"
        },
        "featType": {
            "value": "archetype"
        },
        "level": {
            "value": 12
        },
        "prerequisites": {
            "value": [
                {
                    "value": "Persistent Creation"
                }
            ]
        },
        "rules": [],
        "source": {
            "value": "Pathfinder Lost Omens: Character Guide"
        },
        "traits": {
            "custom": "",
            "rarity": {
                "value": "common"
            },
            "value": [
                "archetype"
            ]
        }
    },
    "effects": [],
    "flags": {},
    "img": "systems/pf2e/icons/features/feats/feats.webp",
    "name": "Charged Creation",
    "type": "feat"
}
