{
    "_id": "s6h0xkdKf3gecLk6",
    "data": {
        "actionCategory": {
            "value": ""
        },
        "actionType": {
            "value": "passive"
        },
        "actions": {
            "value": null
        },
        "description": {
            "value": "<p>You have a deep understanding of the crossbow. When you're wielding a crossbow and Interact to reload it, including Interact actions as part of your slinger's reload and similar effects, you gain a +2 circumstance bonus to the damage roll on your next Strike with that crossbow. As normal, this isn't cumulative with the +1 circumstance bonus from singular expertise. If the crossbow is a simple crossbow, also increase the damage die size for that attack by one step. You must make the attack before the end of your turn or these benefits are lost.</p>"
        },
        "featType": {
            "value": "class"
        },
        "level": {
            "value": 1
        },
        "location": "",
        "prerequisites": {
            "value": []
        },
        "rules": [],
        "source": {
            "value": ""
        },
        "traits": {
            "custom": "",
            "rarity": {
                "value": "common"
            },
            "value": [
                "gunslinger"
            ]
        }
    },
    "effects": [],
    "flags": {},
    "img": "systems/pf2e/icons/default-icons/feats.webp",
    "name": "Crossbow Crack Shot",
    "type": "feat"
}
