{
    "_id": "sMCpihnBEpx18GBD",
    "data": {
        "actionCategory": {
            "value": ""
        },
        "actionType": {
            "value": "passive"
        },
        "actions": {
            "value": null
        },
        "description": {
            "value": "<p>You have practice combating plague, and your patients are less likely to succumb to the same disease again for a time.</p>\n<p>When you successfully @Compendium[pf2e.actionspf2e.Treat Disease]{Treat a Disease} on someone and they fully recover from the disease, they gain a +2 circumstance bonus to saving throws against that same disease for 1 week.</p>"
        },
        "featType": {
            "value": "skill"
        },
        "level": {
            "value": 1
        },
        "prerequisites": {
            "value": [
                {
                    "value": "trained in Medicine"
                }
            ]
        },
        "rules": [],
        "source": {
            "value": "Pathfinder Advanced Player's Guide"
        },
        "traits": {
            "custom": "",
            "rarity": {
                "value": "common"
            },
            "value": [
                "general",
                "healing",
                "skill"
            ]
        }
    },
    "effects": [],
    "flags": {},
    "img": "systems/pf2e/icons/features/feats/feats.webp",
    "name": "Inoculation",
    "type": "feat"
}
