{
    "_id": "YTTJqRKH8QZl6al2",
    "data": {
        "actionCategory": {
            "value": ""
        },
        "actionType": {
            "value": "passive"
        },
        "actions": {
            "value": null
        },
        "description": {
            "value": "<p>You swiftly assess your prey and apply what you know. As part of the action used to Hunt your Prey, you can attempt a check to @Compendium[pf2e.actionspf2e.Recall Knowledge (Nature)]{Recall Knowledge} about your prey.</p>\n<p>When you critically succeed at identifying your hunted prey with Recall Knowledge, you note a weakness in the creature's defenses. You and allies you tell gain a +1 circumstance bonus to your next attack roll against that prey.</p>\n<p>You can give bonuses from Monster Hunter only once per day against a particular creature.</p>\n<p>@Compendium[pf2e.feat-effects.Effect: Monster Hunter]{Effect: Monster Hunter}</p>"
        },
        "featType": {
            "value": "class"
        },
        "level": {
            "value": 1
        },
        "location": "",
        "prerequisites": {
            "value": []
        },
        "rules": [],
        "source": {
            "value": "Pathfinder Core Rulebook"
        },
        "traits": {
            "custom": "",
            "rarity": {
                "value": "common"
            },
            "value": [
                "ranger"
            ]
        }
    },
    "effects": [],
    "flags": {},
    "img": "systems/pf2e/icons/features/feats/feats.webp",
    "name": "Monster Hunter",
    "type": "feat"
}
