{
    "_id": "LRSTjjBNNlD0XZX8",
    "data": {
        "actionCategory": {
            "value": ""
        },
        "actionType": {
            "value": "action"
        },
        "actions": {
            "value": 1
        },
        "description": {
            "value": "<p><strong>Frequency</strong> once per day</p>\n<hr />\n<p>You can concentrate an immense amount of magic to create a piece of ammunition that phases through everything but your target.</p>\n<p>Make a bow Strike against a foe who is @Compendium[pf2e.conditionitems.Observed]{Observed} or @Compendium[pf2e.conditionitems.Hidden]{Hidden} to you (but not @Compendium[pf2e.conditionitems.Undetected]{Undetected}).</p>\n<p>The ammunition travels to your target in a straight line, passing through any non-magical barriers or walls in its way, though magical barriers stop the arrow. The shot ignores all cover, the concealed condition, the hidden condition, and circumstance bonuses to AC from shields. It has a +4 status bonus to hit creatures wearing any type of armor.</p>\n<p>The Strike's damage can't be reduced with a @Compendium[pf2e.feats-srd.Shield Block]{Shield Block} reaction using a non-magical shield.</p>"
        },
        "featType": {
            "value": "archetype"
        },
        "level": {
            "value": 16
        },
        "prerequisites": {
            "value": [
                {
                    "value": "Eldritch Archer Dedication"
                }
            ]
        },
        "rules": [],
        "source": {
            "value": "Pathfinder Advanced Player's Guide"
        },
        "traits": {
            "custom": "",
            "rarity": {
                "value": "common"
            },
            "value": [
                "archetype",
                "conjuration",
                "magical"
            ]
        }
    },
    "effects": [],
    "flags": {},
    "img": "systems/pf2e/icons/features/feats/feats.webp",
    "name": "Phase Arrow",
    "type": "feat"
}
