{
    "_id": "NEl8G3SlwxOR9Zx1",
    "data": {
        "actionCategory": {
            "value": ""
        },
        "actionType": {
            "value": "reaction"
        },
        "actions": {
            "value": null
        },
        "description": {
            "value": "<p><strong>Frequency</strong> once per day</p>\n<p><strong>Trigger</strong> You would take bludgeoning, piercing, or slashing damage.</p>\n<hr />\n<p>Your body anticipates the blow. The impact area briefly reorganizes into a strengthened tissue lattice that blunts the attack. You gain resistance equal to your level to the triggering damage type, which applies against the triggering damage.</p>\n<p>If you have the @Compendium[pf2e.feats-srd.Crystalline Dust]{Crystalline Dust} feat, you can use Preemptive Reconfiguration without expending a usage of the reaction for the purpose of the feat's Frequency limit. Instead, the usage counts toward your number of Crystalline Dust uses per day, as if you had used that feat instead.</p>"
        },
        "featType": {
            "value": "ancestry"
        },
        "level": {
            "value": 9
        },
        "location": "",
        "prerequisites": {
            "value": []
        },
        "rules": [],
        "source": {
            "value": "Pathfinder Lost Omens: Ancestry Guide"
        },
        "traits": {
            "custom": "",
            "rarity": {
                "value": "common"
            },
            "value": [
                "aphorite"
            ]
        }
    },
    "effects": [],
    "flags": {},
    "img": "systems/pf2e/icons/features/feats/feats.webp",
    "name": "Preemptive Reconfiguration",
    "type": "feat"
}
