{
    "_id": "ux6kbsqRMsu9VHtn",
    "data": {
        "actionCategory": {
            "value": "offensive"
        },
        "actionType": {
            "value": "action"
        },
        "actions": {
            "value": 2
        },
        "description": {
            "value": "<p><strong>Frequency</strong> once per day</p>\n<hr />\n<p>You can launch a mass of quills at opponents. You spray quills in a 30-foot cone, dealing [[/r {5d8}[piercing]]]{5d8 piercing damage}. Each creature in the area must attempt a basic saving throw against the higher of your class DC or spell DC. On a critical failure, a creature also takes [[/r {5}[persistent,bleed]]] @Compendium[pf2e.conditionitems.Persistent Damage]{Persistent Bleed Damage}. At 11th level and every even level thereafter, the piercing damage increases by 1d8 and the persistent bleed damage increases by 1.</p>\n<p>[[/r ceil(@details.level.value/2)d8 #piercing]]{Levelled} piercing damage</p>\n<p>[[/r ceil(@details.level.value/2) #persistent bleed]]{Levelled} @Compendium[pf2e.conditionitems.Persistent Damage]{Persistent Bleed Damage}</p>"
        },
        "featType": {
            "value": "ancestry"
        },
        "level": {
            "value": 9
        },
        "location": "",
        "prerequisites": {
            "value": [
                {
                    "value": "quillcoat shisk or quill unarmed attack"
                }
            ]
        },
        "rules": [],
        "source": {
            "value": "Pathfinder Lost Omens: The Mwangi Expanse"
        },
        "traits": {
            "custom": "",
            "rarity": {
                "value": "common"
            },
            "value": [
                "shisk"
            ]
        }
    },
    "effects": [],
    "flags": {},
    "img": "systems/pf2e/icons/default-icons/feat.svg",
    "name": "Quill Spray",
    "type": "feat"
}
