{
    "_id": "lIr2kC561L7oX290",
    "data": {
        "actionCategory": {
            "value": "offensive"
        },
        "actionType": {
            "value": "action"
        },
        "actions": {
            "value": 2
        },
        "description": {
            "value": "<p><strong>Requirements</strong> You're wielding a loaded firearm or loaded crossbow in one hand and a bludgeoning or slashing melee weapon in the other.</p>\n<hr />\n<p>You hurl your melee weapon at an opponent, then fire a bullet into the weapon's hilt, making it deal additional damage and bounce back to your grasp. Make a thrown ranged Strike with the melee weapon, then a ranged Strike with your firearm. Both Strikes use the same multiple attack penalty. If the melee weapon doesn't already have the thrown trait, it gains the thrown 10 feet trait during a Rebounding Assault.</p>\n<p>If both attacks are successful, the bolt or bullet hits the thrown melee weapon instead of your target, adding its force into one attack. Combine the damage from both Strikes, using the thrown weapon's damage type, and add an additional [[/r {1d6}[precision]]]{1d6 precision damage}. The impact sends the melee weapon rebounding off the target and back to your hand.</p>\n<p>In any circumstance other than both attacks hitting, carry out the individual Strikes normally. The thrown weapon doesn't rebound and remains in the target's space as normal for thrown weapons.</p>"
        },
        "featType": {
            "value": "class"
        },
        "level": {
            "value": 10
        },
        "location": "",
        "prerequisites": {
            "value": []
        },
        "rules": [],
        "source": {
            "value": ""
        },
        "traits": {
            "custom": "",
            "rarity": {
                "value": "common"
            },
            "value": [
                "gunslinger"
            ]
        }
    },
    "effects": [],
    "flags": {},
    "img": "systems/pf2e/icons/default-icons/feats.webp",
    "name": "Rebounding Assault",
    "type": "feat"
}
