{
    "_id": "zbxqYhmn7KbqR2Sb",
    "data": {
        "actionCategory": {
            "value": ""
        },
        "actionType": {
            "value": "action"
        },
        "actions": {
            "value": 1
        },
        "description": {
            "value": "<p><strong>Requirements</strong> A frightened creature is in your melee reach</p>\n<hr />\n<p>Your offense exploits your enemy's fear.</p>\n<p>Make a melee Strike against a @Compendium[pf2e.conditionitems.Frightened]{Frightened} creature. If you hit and deal damage, the target becomes @Compendium[pf2e.conditionitems.Flat-Footed]{Flat-Footed} until its frightened condition ends.</p>\n<p>If the target was already flat-footed to you when you damaged it with this Strike, it can't reduce its frightened value below 1 until the start of your next turn.</p>"
        },
        "featType": {
            "value": "class"
        },
        "level": {
            "value": 6
        },
        "prerequisites": {
            "value": []
        },
        "rules": [],
        "source": {
            "value": "Pathfinder Core Rulebook"
        },
        "traits": {
            "custom": "",
            "rarity": {
                "value": "common"
            },
            "value": [
                "fighter",
                "press"
            ]
        }
    },
    "effects": [],
    "flags": {},
    "img": "systems/pf2e/icons/features/feats/feats.webp",
    "name": "Shatter Defenses",
    "type": "feat"
}
