{
    "_id": "5Jc2ySGLVi053qpz",
    "data": {
        "actionCategory": {
            "value": ""
        },
        "actionType": {
            "value": "action"
        },
        "actions": {
            "value": 1
        },
        "description": {
            "value": "<p><strong>Requirements</strong> Your last action was a melee Strike that dealt sneak attack damage to a @Compendium[pf2e.conditionitems.Flat-Footed]{Flat-Footed} target</p>\n<hr />\n<p>After stabbing your opponent in a weak spot, you tear the wound open. You deal @Compendium[pf2e.conditionitems.Persistent Damage]{Persistent Bleed Damage} to the target equal to your number of sneak attack damage dice.</p>"
        },
        "featType": {
            "value": "class"
        },
        "level": {
            "value": 6
        },
        "prerequisites": {
            "value": []
        },
        "rules": [],
        "source": {
            "value": "Pathfinder Core Rulebook"
        },
        "traits": {
            "custom": "",
            "rarity": {
                "value": "common"
            },
            "value": [
                "rogue"
            ]
        }
    },
    "effects": [],
    "flags": {},
    "img": "systems/pf2e/icons/features/feats/feats.webp",
    "name": "Twist the Knife",
    "type": "feat"
}
