{
    "_id": "7ZwXUlnqjj9zEYbO",
    "data": {
        "actionCategory": {
            "value": ""
        },
        "actionType": {
            "value": "passive"
        },
        "actions": {
            "value": null
        },
        "description": {
            "value": "<p>You have a knack for breaking and dismantling things. Putting them back together is the boring part, so you largely don't bother with that. You become trained in Thievery. If you would automatically become trained in Thievery (from your background or class, for example), you instead become trained in a skill of your choice. In addition, whenever you hit with a Strike against a trap or an unattended object, you ignore the first 5 points of the object's Hardness.</p>"
        },
        "featType": {
            "value": "ancestry"
        },
        "level": {
            "value": 5
        },
        "prerequisites": {
            "value": []
        },
        "rules": [],
        "source": {
            "value": "Pathfinder Advanced Player's Guide"
        },
        "traits": {
            "custom": "",
            "rarity": {
                "value": "common"
            },
            "value": [
                "goblin"
            ]
        }
    },
    "effects": [],
    "flags": {},
    "img": "systems/pf2e/icons/features/feats/feats.webp",
    "name": "Vandal",
    "type": "feat"
}
