{
    "_id": "pCck5GgKIiIPGGdy",
    "data": {
        "actionCategory": {
            "value": ""
        },
        "actionType": {
            "value": "passive"
        },
        "actions": {
            "value": null
        },
        "description": {
            "value": "<p>Born of a blood hag, a fiery blood drinker hidden behind a false skin, you have one blood-red eye and the ability to slough off your appearance in an instant.</p>\n<p>You gain the @Compendium[pf2e.feats-srd.Lie To Me]{Lie To Me} skill feat, and you can shed a disguise quickly by peeling off the outer layer of your skin.</p>\n<p>Changing from a disguise used to @Compendium[pf2e.actionspf2e.Impersonate]{Impersonate} back to your true appearance is a 3-action activity for you; if you're an expert in Deception, it's a 2-action activity, and if you're legendary in Deception, it takes only a single action. This doesn't allow you to don or remove armor or other equipment any faster, but your physical appearance otherwise returns to its normal state.</p>"
        },
        "featType": {
            "value": "ancestry"
        },
        "level": {
            "value": 1
        },
        "location": "",
        "prerequisites": {
            "value": []
        },
        "rules": [],
        "source": {
            "value": "Pathfinder Lost Omens: Ancestry Guide"
        },
        "traits": {
            "custom": "",
            "rarity": {
                "value": "common"
            },
            "value": [
                "changeling",
                "lineage"
            ]
        }
    },
    "effects": [],
    "flags": {},
    "img": "systems/pf2e/icons/features/feats/feats.webp",
    "name": "Veil May",
    "type": "feat"
}
