{
    "_id": "zt5CWn3UrPViwaB3",
    "data": {
        "actionCategory": {
            "value": ""
        },
        "actionType": {
            "value": "passive"
        },
        "actions": {
            "value": null
        },
        "description": {
            "value": "<p>The debilitations you dish out seriously impair your foes. Add the following debilitations to the list you can choose from when you use @Compendium[pf2e.actionspf2e.Debilitating Strike]{Debilitating Strike}.</p>\n<ul>\n<li><strong>Debilitation:</strong> The target gains weakness 5 to your choice of bludgeoning, piercing, or slashing damage.</li>\n<li><strong>Debilitation:</strong> The target becomes @Compendium[pf2e.conditionitems.Clumsy]{Clumsy 1}.</li>\n</ul>"
        },
        "featType": {
            "value": "class"
        },
        "level": {
            "value": 10
        },
        "location": "",
        "prerequisites": {
            "value": [
                {
                    "value": "ruffian racket"
                },
                {
                    "value": "Debilitating Strike"
                }
            ]
        },
        "rules": [
            {
                "key": "Note",
                "predicate": {
                    "all": [
                        "target:flatFooted"
                    ]
                },
                "selector": "damage",
                "text": "<span class='pf2-icon'>f</span> @Compendium[pf2e.feats-srd.Vicious Debilitations]{Vicious Debilitations}"
            }
        ],
        "source": {
            "value": "Pathfinder Core Rulebook"
        },
        "traits": {
            "custom": "",
            "rarity": {
                "value": "common"
            },
            "value": [
                "rogue"
            ]
        }
    },
    "effects": [],
    "flags": {},
    "img": "systems/pf2e/icons/features/feats/feats.webp",
    "name": "Vicious Debilitations",
    "type": "feat"
}
