{
    "_id": "b5OyBdc0bolgWZZT",
    "data": {
        "description": {
            "value": "<p>Granted by <em>@Compendium[pf2e.spells-srd.Tempest Form]{Tempest Form}</em></p>\n<p>Your body becomes fluid to better suit your surroundings.</p>\n<p>When you cast this spell, choose whether to become air, water, or mist. The spell gains the air trait if you choose air or mist, and the water trait if you choose water or mist.</p>\n<p>You become amorphous, as does your armor. You lose any item bonus to AC and use your proficiency bonus for unarmored defense to determine your AC. You also gain resistance 10 to physical damage and become immune to precision damage. You can slip through tiny cracks and don't need to breathe. You can't cast spells, activate items, or use actions that have the attack or manipulate trait. You also gain the following effects based on your form.</p>\n<p><strong>Air</strong></p>\n<ul>\n<li>You gain a Fly Speed of 20 feet and become @Compendium[pf2e.conditionitems.Invisible]{Invisible} while you are in the air.</li>\n<li>You can create the effects of a <em>@Compendium[pf2e.spells-srd.Gust of Wind]{Gust of Wind}</em> from your space as a 2-action activity, which has the manipulate trait.</li>\n</ul>\n<hr />\n<p><strong>Heightened (+2)</strong> Increase the resistance by 5.</p>"
        },
        "duration": {
            "expiry": "turn-start",
            "sustained": false,
            "unit": "minutes",
            "value": 1
        },
        "level": {
            "value": 6
        },
        "rules": [
            {
                "key": "BaseSpeed",
                "selector": "fly",
                "value": 20
            }
        ],
        "source": {
            "value": ""
        },
        "start": {
            "initiative": null,
            "value": 0
        },
        "target": null,
        "tokenIcon": {
            "show": true
        },
        "traits": {
            "custom": "",
            "rarity": {
                "value": "common"
            },
            "value": []
        }
    },
    "effects": [],
    "flags": {},
    "img": "systems/pf2e/icons/spells/tempest-form.webp",
    "name": "Spell Effect: Tempest Form (Air)",
    "type": "effect"
}
