{
    "_id": "uIMaMzd6pcKmMNPJ",
    "data": {
        "description": {
            "value": "<p>Granted by @Compendium[pf2e.spells-srd.Fiery Body]{Fiery Body}</p>"
        },
        "duration": {
            "expiry": "turn-start",
            "sustained": false,
            "unit": "minutes",
            "value": 1
        },
        "level": {
            "value": 7
        },
        "rules": [
            {
                "key": "Immunity",
                "type": "fire"
            },
            {
                "key": "Resistance",
                "type": "precision",
                "value": 10
            },
            {
                "key": "Weakness",
                "type": "cold",
                "value": 5
            },
            {
                "key": "Weakness",
                "type": "water",
                "value": 5
            },
            {
                "damageType": "fire",
                "diceNumber": 1,
                "dieSize": "d4",
                "key": "DamageDice",
                "label": "Fiery Body",
                "predicate": {
                    "all": [
                        "unarmed"
                    ]
                },
                "selector": "damage"
            },
            {
                "key": "BaseSpeed",
                "selector": "fly",
                "value": 40
            }
        ],
        "source": {
            "value": ""
        },
        "start": {
            "initiative": null,
            "value": 0
        },
        "target": null,
        "tokenIcon": {
            "show": true
        },
        "traits": {
            "custom": "",
            "rarity": {
                "value": "common"
            },
            "value": []
        }
    },
    "effects": [],
    "flags": {},
    "img": "systems/pf2e/icons/spells/fiery-body.webp",
    "name": "Spell Effect: Fiery Body",
    "type": "effect"
}
