{
    "_id": "64TX3n5xufgjqbwK",
    "data": {
        "attributes": {
            "ac": {
                "value": 34
            },
            "hardness": 24,
            "hasHealth": true,
            "hp": {
                "details": "",
                "max": 96,
                "temp": 0,
                "tempmax": 0,
                "value": 96
            },
            "stealth": {
                "details": "(expert) or DC 39 (master) to notice the control panel. Anyone specifically searching the name plate of Abresha Tallow-Hands locates the control panel automatically.",
                "value": 24
            }
        },
        "creatureType": "",
        "details": {
            "description": "Countless poison darts fire from holes in the statues and walls of this hall.",
            "disable": "DC 34 Thievery (master) on the control panel deactivates the trap.",
            "isComplex": true,
            "level": {
                "value": 14
            },
            "reset": "The trap deactivates and resets after 1 minute.",
            "routine": "(1 action) The trap launches one dart against every creature in the hall as 1 action. Because it launches darts continuously, the trap can also use the Continuous Barrage free action (see below) to launch darts at each creature during that creature's turn. The trap doesn't take a multiple attack penalty."
        },
        "saves": {
            "fortitude": {
                "saveDetail": "",
                "value": 20
            },
            "reflex": {
                "saveDetail": "",
                "value": 25
            },
            "will": {
                "saveDetail": "",
                "value": 0
            }
        },
        "source": {
            "value": "Pathfinder #160: Assault on Hunting Lodge Seven"
        },
        "statusEffects": [],
        "traits": {
            "ci": [],
            "di": {
                "custom": "",
                "selected": {},
                "value": [
                    "critical-hits",
                    "object-immunities",
                    "precision"
                ]
            },
            "dr": [],
            "dv": [],
            "rarity": {
                "value": "common"
            },
            "size": {
                "value": "med"
            },
            "traits": {
                "custom": "",
                "value": [
                    "mechanical"
                ]
            }
        }
    },
    "effects": [],
    "flags": {},
    "img": "systems/pf2e/icons/default-icons/hazard.svg",
    "items": [
        {
            "_id": "Nbx9ouRvtXU7r7XP",
            "data": {
                "actionCategory": {
                    "value": "offensive"
                },
                "actionType": {
                    "value": "reaction"
                },
                "actions": {
                    "value": null
                },
                "description": {
                    "value": "<p data-visibility=\"gm\"><strong>Trigger</strong> A creature makes noise in the hall, which can be avoided with a successful <span data-pf2-check=\"stealth\" data-pf2-dc=\"28\" data-pf2-traits=\"action:sneak,move,secret\" data-pf2-label=\"Avoid Notice DC\" data-pf2-show-dc=\"gm\">Stealth</span> check</p>\n<p><strong>Effect</strong> The trap makes a poisoned dart Strike against the triggering creature, then rolls initiative.</p>"
                },
                "requirements": {
                    "value": ""
                },
                "rules": [],
                "slug": null,
                "source": {
                    "value": ""
                },
                "traits": {
                    "custom": "",
                    "rarity": {
                        "value": "common"
                    },
                    "value": []
                },
                "trigger": {
                    "value": ""
                },
                "weapon": {
                    "value": ""
                }
            },
            "effects": [],
            "flags": {},
            "img": "systems/pf2e/icons/actions/Reaction.webp",
            "name": "Dart Volley",
            "sort": 200000,
            "type": "action"
        },
        {
            "_id": "IDckQwFfttdnib8W",
            "data": {
                "attack": {
                    "value": ""
                },
                "attackEffects": {
                    "custom": "",
                    "value": [
                        "terinav-root-poison"
                    ]
                },
                "bonus": {
                    "value": 28
                },
                "damageRolls": {
                    "0": {
                        "damage": "4d4",
                        "damageType": "piercing"
                    }
                },
                "description": {
                    "value": ""
                },
                "rules": [],
                "slug": null,
                "source": {
                    "value": ""
                },
                "traits": {
                    "custom": "",
                    "rarity": {
                        "value": "common"
                    },
                    "value": []
                },
                "weaponType": {
                    "value": "ranged"
                }
            },
            "effects": [],
            "flags": {},
            "img": "systems/pf2e/icons/default-icons/melee.svg",
            "name": "poisoned dart",
            "sort": 100000,
            "type": "melee"
        },
        {
            "_id": "u4BY6CXSH5AXUTMv",
            "data": {
                "actionCategory": {
                    "value": "offensive"
                },
                "actionType": {
                    "value": "free"
                },
                "actions": {
                    "value": null
                },
                "description": {
                    "value": "<p data-visibility=\"gm\"><strong>Trigger</strong> A creature within the hallway finishes an action while the trap is active</p>\n<p><strong>Effect</strong> The trap makes a poisoned dart Strike against the triggering creature.</p>"
                },
                "requirements": {
                    "value": ""
                },
                "rules": [],
                "slug": null,
                "source": {
                    "value": ""
                },
                "traits": {
                    "custom": "",
                    "rarity": {
                        "value": "common"
                    },
                    "value": []
                },
                "trigger": {
                    "value": ""
                },
                "weapon": {
                    "value": ""
                }
            },
            "effects": [],
            "flags": {},
            "img": "systems/pf2e/icons/actions/FreeAction.webp",
            "name": "Continuous Barrage",
            "sort": 300000,
            "type": "action"
        },
        {
            "_id": "n9oO2EI8HwHSgtLl",
            "data": {
                "actionCategory": {
                    "value": "offensive"
                },
                "actionType": {
                    "value": "passive"
                },
                "actions": {
                    "value": null
                },
                "description": {
                    "value": "<p><strong>Saving Throw</strong> <span data-pf2-check=\"fortitude\" data-pf2-dc=\"28\" data-pf2-traits=\"poison\" data-pf2-label=\"Terinav Root Poison DC\" data-pf2-show-dc=\"gm\">Fortitude</span></p>\n<p><strong>Maximum Duration</strong> 6 rounds</p>\n<p><strong>Stage 1</strong> 4d6 poison damage and clumsy 2 (1 round)</p>\n<p><strong>Stage 2</strong> 5d6 poison damage, clumsy 2, and -5-foot status penalty to all Speeds (1 round)</p>\n<p><strong>Stage 3</strong> 7d6 poison damage, clumsy 2, and -10-foot status penalty to all Speeds (1 round)</p>"
                },
                "requirements": {
                    "value": ""
                },
                "rules": [],
                "slug": null,
                "source": {
                    "value": ""
                },
                "traits": {
                    "custom": "",
                    "rarity": {
                        "value": "common"
                    },
                    "value": [
                        "poison"
                    ]
                },
                "trigger": {
                    "value": ""
                },
                "weapon": {
                    "value": ""
                }
            },
            "effects": [],
            "flags": {},
            "img": "systems/pf2e/icons/actions/Passive.webp",
            "name": "Terinav Root Poison",
            "sort": 400000,
            "type": "action"
        }
    ],
    "name": "Poisoned Dart Statue",
    "token": {
        "disposition": 0,
        "height": 1,
        "img": "systems/pf2e/icons/default-icons/hazard.svg",
        "name": "Poisoned Dart Statues",
        "width": 1
    },
    "type": "hazard"
}
