{
    "_id": "34ndZHSZRtvqNUxa",
    "data": {
        "attributes": {
            "ac": {
                "value": 34
            },
            "hardness": 24,
            "hasHealth": true,
            "hp": {
                "details": "",
                "max": 96,
                "temp": 0,
                "value": 96
            },
            "stealth": {
                "details": "<p>(master)</p>",
                "value": 28
            }
        },
        "creatureType": "",
        "details": {
            "description": "<p>Sinister runes adorn the doorway, opening a portal to a realm of nightmares if anyone other than Dwandek opens the door.</p>",
            "disable": "<p><span data-pf2-check=\"thievery\" data-pf2-traits=\"magical,trap,hazard\" data-pf2-label=\"Seal the Rift DC\" data-pf2-dc=\"40\" data-pf2-show-dc=\"gm\">Thievery</span> (master) to seal the rift using materials strongly grounded to the Material Plane, or <em>@Compendium[pf2e.spells-srd.Dispel Magic]{Dispel Magic}</em> (7th‑level, counteract DC 33) to counteract the portal.</p>",
            "isComplex": false,
            "level": {
                "value": 15
            },
            "reset": "<p>The deathly dream trap resets automatically as long as it hasn't been disabled or destroyed. Each time it resets, the tiny pocket plane of nightmare it sends its victim into resets as well, so no two victims will ever share the same deathly dream.</p>",
            "routine": ""
        },
        "saves": {
            "fortitude": {
                "saveDetail": "",
                "value": 29
            },
            "reflex": {
                "saveDetail": "",
                "value": 23
            },
            "will": {
                "saveDetail": "",
                "value": 0
            }
        },
        "source": {
            "value": "Pathfinder #173: Doorway to the Red Star"
        },
        "statusEffects": [],
        "traits": {
            "ci": [],
            "di": {
                "custom": "",
                "selected": {},
                "value": [
                    "critical-hits",
                    "object-immunities",
                    "precision"
                ]
            },
            "dr": [],
            "dv": [],
            "rarity": {
                "value": "rare"
            },
            "size": {
                "value": "med"
            },
            "traits": {
                "custom": "",
                "value": [
                    "magical",
                    "trap"
                ]
            }
        }
    },
    "effects": [],
    "flags": {},
    "img": "systems/pf2e/icons/default-icons/hazard.svg",
    "items": [
        {
            "_id": "0geq4zokl59qiywn",
            "data": {
                "actionCategory": {
                    "value": "offensive"
                },
                "actionType": {
                    "value": "reaction"
                },
                "actions": {
                    "value": null
                },
                "description": {
                    "value": "<p data-visibility=\"gm\"><strong>Trigger</strong> A creature other than Dwandek opens the door</p>\n<p><strong>Effect</strong> The triggering creature is drawn into a pocket plane of pure nightmare (<span data-pf2-check=\"will\" data-pf2-traits=\"arcane,conjuration,teleportation\" data-pf2-label=\"Drawn to Nightmare DC\" data-pf2-dc=\"38\" data-pf2-show-dc=\"gm\">Will</span> save to resist). Each round at the start of their turn, the creature takes [[/r {4d8}[mental]]]{4d8 mental damage} as they are assaulted by otherworldly visions, and must succeed at a new Will save against the original DC to be ejected from the pocket plane and deposited in the center of area <strong>A5</strong>.</p>"
                },
                "requirements": {
                    "value": ""
                },
                "rules": [],
                "slug": null,
                "source": {
                    "value": ""
                },
                "traits": {
                    "custom": "",
                    "rarity": {
                        "value": "common"
                    },
                    "value": [
                        "arcane",
                        "conjuration",
                        "teleportation"
                    ]
                },
                "trigger": {
                    "value": ""
                }
            },
            "effects": [],
            "flags": {},
            "img": "systems/pf2e/icons/actions/Reaction.webp",
            "name": "Drawn to Nightmare",
            "sort": 0,
            "type": "action"
        }
    ],
    "name": "Deathly Dream",
    "token": {
        "disposition": 0,
        "height": 1,
        "img": "systems/pf2e/icons/default-icons/npc.svg",
        "name": "Deathly Dream",
        "width": 1
    },
    "type": "hazard"
}
