{
    "_id": "0jadeyQIItIuRgeH",
    "data": {
        "ability": {
            "value": ""
        },
        "area": {
            "areaType": "burst",
            "value": "60"
        },
        "areasize": {
            "value": "60-foot burst"
        },
        "category": {
            "value": "spell"
        },
        "components": {
            "focus": false,
            "material": false,
            "somatic": true,
            "verbal": true
        },
        "cost": {
            "value": ""
        },
        "damage": {
            "value": {
                "0": {
                    "applyMod": false,
                    "type": {
                        "categories": [],
                        "subtype": "",
                        "value": "cold"
                    },
                    "value": "8d10"
                },
                "v1pnjhfu6e9akqe0": {
                    "applyMod": false,
                    "type": {
                        "categories": [],
                        "subtype": "",
                        "value": "negative"
                    },
                    "value": "8d4"
                }
            }
        },
        "description": {
            "value": "<p>A globe of freezing darkness explodes in the area, dealing 8d10 cold damage to creatures in the area, plus 8d4 additional negative damage to living creatures. Each creature in the area must attempt a Reflex save. If the globe overlaps with an area of magical light or affects a creature affected by magical light, eclipse burst attempts to counteract the light effect.</p>\n<hr />\n<p><strong>Critical Success</strong> The creature is unaffected.</p>\n<p><strong>Success</strong> The creature takes half damage.</p>\n<p><strong>Failure</strong> The creature takes full damage.</p>\n<p><strong>Critical Failure</strong> The creature takes double damage and becomes @Compendium[pf2e.conditionitems.Blinded]{Blinded} by the darkness for an unlimited duration.</p>\n<hr />\n<p><strong>Heightened (+1)</strong> The cold damage increases by 1d10 and the negative damage against the living increases by 1d4.</p>"
        },
        "duration": {
            "value": ""
        },
        "hasCounteractCheck": {
            "value": false
        },
        "level": {
            "value": 7
        },
        "location": {
            "value": ""
        },
        "materials": {
            "value": ""
        },
        "prepared": {
            "value": ""
        },
        "primarycheck": {
            "value": ""
        },
        "range": {
            "value": "500 feet"
        },
        "rules": [],
        "save": {
            "basic": "",
            "value": "reflex"
        },
        "scaling": {
            "damage": {
                "0": "1d10",
                "v1pnjhfu6e9akqe0": "1d4"
            },
            "interval": 1
        },
        "school": {
            "value": "necromancy"
        },
        "secondarycasters": {
            "value": ""
        },
        "secondarycheck": {
            "value": ""
        },
        "source": {
            "value": "Pathfinder Core Rulebook"
        },
        "spellType": {
            "value": "save"
        },
        "sustained": {
            "value": false
        },
        "target": {
            "value": ""
        },
        "time": {
            "value": "2"
        },
        "traditions": {
            "value": [
                "arcane",
                "divine",
                "primal"
            ]
        },
        "traits": {
            "custom": "",
            "rarity": {
                "value": "common"
            },
            "value": [
                "cold",
                "darkness",
                "negative"
            ]
        }
    },
    "effects": [],
    "flags": {},
    "img": "systems/pf2e/icons/spells/eclipse-burst.webp",
    "name": "Eclipse Burst",
    "type": "spell"
}
