{
    "_id": "kMffb6SvhCBMMI4k",
    "data": {
        "ability": {
            "value": ""
        },
        "area": {
            "areaType": "burst",
            "value": "20"
        },
        "autoHeightenLevel": {
            "value": null
        },
        "category": {
            "value": "spell"
        },
        "components": {
            "focus": false,
            "material": false,
            "somatic": true,
            "verbal": true
        },
        "cost": {
            "value": ""
        },
        "damage": {
            "value": {}
        },
        "description": {
            "value": "<p>Select an elemental trait: air, earth, fire, or water. <em>Elemental zone</em> gains the trait you chose. You imbue the area with the raw energy of that element, creating a zone that emits and amplifies magic of that type. The temperature might suddenly rise or fall, a storm cloud might form, and so on. Spells with the chosen elemental trait cast against creatures in the zone get a +2 status bonus to one damage type the spell deals based on the chosen trait: bludgeoning or electricity for air, bludgeoning for earth, fire for fire, and bludgeoning or cold for water. The caster chooses one type to add the bonus to if the spell deals more than one eligible type. This bonus is halved if the spell didn't use a spell slot (such as a cantrip, focus spell, or innate spell).</p>\n<p>The zone has no effect on the spell if the spell doesn't deal any damage of an eligible type.</p>\n<hr />\n<p><strong>Heightened (+2)</strong> The status bonus increases by 1.</p>"
        },
        "duration": {
            "value": "1 minute"
        },
        "hasCounteractCheck": {
            "value": false
        },
        "level": {
            "value": 2
        },
        "location": {
            "value": ""
        },
        "materials": {
            "value": ""
        },
        "range": {
            "value": "120 feet"
        },
        "rules": [],
        "save": {
            "basic": "",
            "value": ""
        },
        "school": {
            "value": "evocation"
        },
        "source": {
            "value": "Pathfinder Secrets of Magic"
        },
        "spellType": {
            "value": "utility"
        },
        "sustained": {
            "value": false
        },
        "target": {
            "value": ""
        },
        "time": {
            "value": "2"
        },
        "traditions": {
            "custom": "",
            "value": [
                "arcane",
                "primal"
            ]
        },
        "traits": {
            "custom": "",
            "rarity": {
                "value": "common"
            },
            "value": []
        }
    },
    "effects": [],
    "flags": {},
    "img": "systems/pf2e/icons/spells/elemental-zone.webp",
    "name": "Elemental Zone",
    "type": "spell"
}
