{
    "_id": "kvm68hVtmADiIvN4",
    "data": {
        "ability": {
            "value": ""
        },
        "area": {
            "areaType": "",
            "value": ""
        },
        "areasize": {
            "value": ""
        },
        "category": {
            "value": "focus"
        },
        "components": {
            "material": false,
            "somatic": false,
            "verbal": true
        },
        "cost": {
            "value": ""
        },
        "damage": {
            "value": {}
        },
        "description": {
            "value": "<p>You draw forth a hag's innate jealousy to deny a target its greatest attribute. The target is cursed with an adverse condition depending on its highest ability modifier: Strength (@Compendium[pf2e.conditionitems.Enfeebled]{Enfeebled}); Dexterity (@Compendium[pf2e.conditionitems.Clumsy]{Clumsy}); Constitution (@Compendium[pf2e.conditionitems.Drained]{Drained}); or Intelligence, Wisdom, or Charisma (@Compendium[pf2e.conditionitems.Stupefied]{Stupefied}). On a tie, the creature decides which of the conditions associated with the tied ability modifiers to take. The target must attempt a Will save.At the start of each of your turns, the target can attempt another Will save, ending the effect on a success.</p>\n<hr /><strong>Success</strong> The target is unaffected.\n<p><strong>Failure</strong> The condition's value is 1.</p>\n<p><strong>Critical Failure</strong> The condition's value is 2.</p>"
        },
        "duration": {
            "value": "up to 1 minute"
        },
        "hasCounteractCheck": {
            "value": false
        },
        "level": {
            "value": 1
        },
        "location": {
            "value": ""
        },
        "materials": {
            "value": ""
        },
        "prepared": {
            "value": ""
        },
        "primarycheck": {
            "value": ""
        },
        "range": {
            "value": "30 feet"
        },
        "rules": [],
        "save": {
            "basic": "basic",
            "value": "will"
        },
        "school": {
            "value": "necromancy"
        },
        "secondarycasters": {
            "value": ""
        },
        "secondarycheck": {
            "value": ""
        },
        "source": {
            "value": "Pathfinder Core Rulebook"
        },
        "spellType": {
            "value": "save"
        },
        "sustained": {
            "value": false
        },
        "target": {
            "value": "1 creature"
        },
        "time": {
            "value": "1"
        },
        "traditions": {
            "value": []
        },
        "traits": {
            "custom": "",
            "rarity": {
                "value": "uncommon"
            },
            "value": [
                "curse",
                "sorcerer"
            ]
        }
    },
    "effects": [],
    "flags": {},
    "img": "systems/pf2e/icons/spells/jealous-hex.webp",
    "name": "Jealous Hex",
    "type": "spell"
}
