{
    "_id": "kCgkreCT6g0dipMd",
    "data": {
        "ability": {
            "value": ""
        },
        "area": {
            "areaType": "",
            "value": ""
        },
        "autoHeightenLevel": {
            "value": null
        },
        "category": {
            "value": "spell"
        },
        "components": {
            "focus": false,
            "material": false,
            "somatic": true,
            "verbal": true
        },
        "cost": {
            "value": ""
        },
        "damage": {
            "applyMod": false,
            "value": {
                "0": {
                    "applyMod": false,
                    "type": {
                        "subtype": "",
                        "value": "bludgeoning"
                    },
                    "value": "3d6"
                },
                "1": {
                    "applyMod": false,
                    "type": {
                        "categories": [],
                        "subtype": "",
                        "value": "piercing"
                    },
                    "value": "2d8"
                }
            }
        },
        "description": {
            "value": "<p>You summon a slithering, thorny vine that attempts to constrict and crush a foe against a wall or other surface. Make a spell attack roll <strong>against the target's Fortitude DC</strong>. On a success, the creature is grabbed and takes 3d6 bludgeoning damage and 2d8 piercing damage. At the end of that creature's turn, if it's still grabbed by the vine, it takes [[/r {2d6}[bludgeoning]]]{2d6 bludgeoning damage}.</p>\n<p>The vine's Escape DC is equal to your spell DC. A creature can attack the vine in an attempt to break its grip. The vine's AC is equal to your spell DC, and the vine is destroyed if it takes 20 or more damage. Destroying or escaping from the vines ends the spell. You can Dismiss the spell.</p>\n<hr />\n<p><strong>Heightened (+2)</strong> The initial bludgeoning damage increases by 1d6, the initial piercing damage increases by 1d8, and the damage a creature takes for ending its turn grabbed by the vine increases by [[/r {1d6}[bludgeoning]]].</p>"
        },
        "duration": {
            "value": "1 minute"
        },
        "hasCounteractCheck": {
            "value": false
        },
        "level": {
            "value": 4
        },
        "location": {
            "value": ""
        },
        "materials": {
            "value": ""
        },
        "range": {
            "value": "60 feet"
        },
        "rules": [],
        "save": {
            "basic": "",
            "value": ""
        },
        "scaling": {
            "damage": {
                "0": "1d6",
                "1": "1d8"
            },
            "interval": 2
        },
        "school": {
            "value": "conjuration"
        },
        "source": {
            "value": "Pathfinder Secrets of Magic"
        },
        "spellType": {
            "value": "attack"
        },
        "sustained": {
            "value": false
        },
        "target": {
            "value": "1 creature adjacent to a flat surface"
        },
        "time": {
            "value": "2"
        },
        "traditions": {
            "custom": "",
            "value": [
                "primal"
            ]
        },
        "traits": {
            "custom": "",
            "rarity": {
                "value": "common"
            },
            "value": [
                "attack",
                "plant"
            ]
        }
    },
    "effects": [],
    "flags": {},
    "img": "systems/pf2e/icons/spells/murderous-vine.webp",
    "name": "Murderous Vine",
    "type": "spell"
}
