{
    "_id": "coKiMMBLESkaLNVa",
    "data": {
        "ability": {
            "value": ""
        },
        "area": {
            "areaType": "",
            "value": ""
        },
        "autoHeightenLevel": {
            "value": null
        },
        "category": {
            "value": "spell"
        },
        "components": {
            "focus": false,
            "material": false,
            "somatic": false,
            "verbal": false
        },
        "cost": {
            "value": ""
        },
        "damage": {
            "value": {}
        },
        "description": {
            "value": "<p>You implant an @Compendium[pf2e.conditionitems.Invisible]{Invisible}, magical eye sensor on the target's body. The eye has sight and vision, but no other special senses. The eye is highly contagious-the first two times the target touches another creature during the duration, the spell buds off an additional eye that implants itself on that creature, which can then bud off two eyes of its own. This process can propagate up to four times from the original target, for a potential maximum of 31 eyes if each affected creature touches two new creatures.</p>\n<p>You can switch between perceiving through your own senses or the vision of any of the eye sensors using a single action, which has the concentrate trait. You always know how many eyes there are and can tell which original eyes budded off to make which new eyes, though you gain no special insight into the identity of the new targets other than what you can glean from spying on them.</p>"
        },
        "duration": {
            "value": "8 hours"
        },
        "hasCounteractCheck": {
            "value": false
        },
        "level": {
            "value": 9
        },
        "location": {
            "value": ""
        },
        "materials": {
            "value": ""
        },
        "range": {
            "value": "touch"
        },
        "rules": [],
        "save": {
            "basic": "",
            "value": ""
        },
        "school": {
            "value": "divination"
        },
        "source": {
            "value": "Pathfinder Secrets of Magic"
        },
        "spellType": {
            "value": "utility"
        },
        "sustained": {
            "value": false
        },
        "target": {
            "value": "1 creature (see description)"
        },
        "time": {
            "value": "2"
        },
        "traditions": {
            "custom": "",
            "value": [
                "arcane",
                "divine",
                "occult"
            ]
        },
        "traits": {
            "custom": "",
            "rarity": {
                "value": "common"
            },
            "value": [
                "scrying"
            ]
        }
    },
    "effects": [],
    "flags": {},
    "img": "systems/pf2e/icons/spells/proliferating-eyes.webp",
    "name": "Proliferating Eyes",
    "type": "spell"
}
