{
    "_id": "lONs4r14LEBZRLLw",
    "data": {
        "ability": {
            "value": ""
        },
        "area": {
            "areaType": "",
            "value": ""
        },
        "autoHeightenLevel": {
            "value": null
        },
        "category": {
            "value": "spell"
        },
        "components": {
            "focus": false,
            "material": false,
            "somatic": false,
            "verbal": true
        },
        "cost": {
            "value": ""
        },
        "damage": {
            "value": {}
        },
        "description": {
            "value": "<p><strong>Trigger</strong> You or another creature attacks a creature or fails at a Deception, Diplomacy, or Intimidation check.</p>\n<p>You alter the target's memories of the triggering event as they form. You choose another creature (which can be you) with the capacity to make the triggering attack or skill check, and you alter the target's memories to recall the creature you chose as responsible for the triggering attack or skill check. The target must attempt a Will save and is then temporarily immune for 24 hours.</p>\n<hr />\n<p><strong>Critical Success</strong> The target knows you attempted to alter its memories.</p>\n<p><strong>Success</strong> The target doesn't realize you attempted to alter its memories, though it knows you cast a spell.</p>\n<p><strong>Failure</strong> You successfully alter the target's memory. It isn't forced to react to the new memories in a particular way, and it's likely to question them if they contradict other information it knows or are implausible for the situation.</p>"
        },
        "duration": {
            "value": ""
        },
        "hasCounteractCheck": {
            "value": false
        },
        "level": {
            "value": 3
        },
        "location": {
            "value": ""
        },
        "materials": {
            "value": ""
        },
        "range": {
            "value": "30 feet"
        },
        "rules": [],
        "save": {
            "basic": "",
            "value": "will"
        },
        "school": {
            "value": "enchantment"
        },
        "source": {
            "value": "Pathfinder Secrets of Magic"
        },
        "spellType": {
            "value": "save"
        },
        "sustained": {
            "value": false
        },
        "target": {
            "value": "the target of the triggering attack or skill check"
        },
        "time": {
            "value": "reaction"
        },
        "traditions": {
            "custom": "",
            "value": [
                "arcane",
                "occult"
            ]
        },
        "traits": {
            "custom": "",
            "rarity": {
                "value": "common"
            },
            "value": [
                "mental"
            ]
        }
    },
    "effects": [],
    "flags": {},
    "img": "systems/pf2e/icons/spells/shift-blame.webp",
    "name": "Shift Blame",
    "type": "spell"
}
