{
    "_id": "ECApRjIIxD0JogOa",
    "data": {
        "ability": {
            "value": ""
        },
        "area": {
            "areaType": "",
            "value": ""
        },
        "autoHeightenLevel": {
            "value": null
        },
        "category": {
            "value": "focus"
        },
        "components": {
            "focus": false,
            "material": false,
            "somatic": true,
            "verbal": true
        },
        "cost": {
            "value": ""
        },
        "damage": {
            "value": {
                "0": {
                    "applyMod": false,
                    "type": {
                        "categories": [],
                        "subtype": "",
                        "value": "piercing"
                    },
                    "value": "6d6"
                }
            }
        },
        "description": {
            "value": "<p>You conjure a jagged lance of stone and then launch it at a foe. Make a spell attack roll against the target. On a hit, you deal 6d6 piercing damage and the lance impales the creature, giving it a -10-foot circumstance penalty to its Speeds unless it Escapes. On a critical hit, if the creature is on the ground, the lance also embeds into the ground and @Compendium[pf2e.conditionitems.Immobilized]{Immobilizes} the creature until it Escapes. A creature that Escapes after being impaled takes [[/r {3}[persistent,bleed]]] @Compendium[pf2e.conditionitems.Persistent Damage]{Persistent Bleed Damage}. When the spell ends, the lance crumbles into dirt, freeing the target if it hasn't Escaped.</p>\n<hr />\n<p><strong>Heightened (+1)</strong> Increase the damage by 2d6 and the persistent bleed damage for Escapes by 1.</p>"
        },
        "duration": {
            "value": "1 minute"
        },
        "hasCounteractCheck": {
            "value": false
        },
        "level": {
            "value": 3
        },
        "location": {
            "value": ""
        },
        "materials": {
            "value": ""
        },
        "prepared": {
            "value": ""
        },
        "range": {
            "value": "120 feet"
        },
        "rules": [],
        "save": {
            "basic": "",
            "value": ""
        },
        "scaling": {
            "damage": {
                "0": "2d6"
            },
            "interval": 1
        },
        "school": {
            "value": "evocation"
        },
        "source": {
            "value": "Pathfinder Secrets of Magic"
        },
        "spellType": {
            "value": "attack"
        },
        "sustained": {
            "value": false
        },
        "target": {
            "value": "1 creature"
        },
        "time": {
            "value": "2"
        },
        "traditions": {
            "value": []
        },
        "traits": {
            "custom": "",
            "rarity": {
                "value": "uncommon"
            },
            "value": [
                "attack",
                "earth"
            ]
        }
    },
    "effects": [],
    "flags": {},
    "img": "systems/pf2e/icons/spells/stone-lance.webp",
    "name": "Stone Lance",
    "type": "spell"
}
