{
    "_id": "8Gsa8KFsHizEwSHU",
    "data": {
        "actionCategory": {
            "value": ""
        },
        "actionType": {
            "value": "passive"
        },
        "actions": {
            "value": null
        },
        "description": {
            "value": "<p>You come from sun-scorched badlands, where long legs and an ability to withstand the elements helped you thrive. You can @Compendium[pf2e.actionspf2e.Hustle]{Hustle} twice as long while exploring before you have to stop, and you treat environmental heat effects as if they were one step less extreme (incredible heat becomes extreme, extreme heat becomes severe, and so on).</p>"
        },
        "featType": {
            "value": "heritage"
        },
        "level": {
            "value": 0
        },
        "location": "",
        "prerequisites": {
            "value": []
        },
        "rules": [],
        "source": {
            "value": ""
        },
        "traits": {
            "custom": "",
            "rarity": {
                "value": "common"
            },
            "value": [
                "orc"
            ]
        }
    },
    "effects": [],
    "flags": {},
    "img": "systems/pf2e/icons/features/ancestry/badlands-orc.webp",
    "name": "Badlands Orc",
    "type": "feat"
}
