{
    "_id": "bLhIBwqdjTiVJ5qm",
    "data": {
        "actionCategory": {
            "value": ""
        },
        "actionType": {
            "value": "passive"
        },
        "actions": {
            "value": null
        },
        "description": {
            "value": "<p>Your family has particularly long, sharp claws capable of delivering bleeding wounds with a wicked swipe. You gain a claw unarmed attack that deals <a class=\"inline-roll roll\" title=\"slashing\" data-mode=\"roll\" data-flavor=\"slashing\" data-formula=\"1d6\"><i class=\"fas fa-dice-d20\"></i> 1d6</a> slashing damage. Your claws are in the brawling group and have the agile, finesse and unarmed traits.</p>"
        },
        "featType": {
            "value": "heritage"
        },
        "level": {
            "value": 0
        },
        "location": "",
        "prerequisites": {
            "value": []
        },
        "rules": [
            {
                "category": "unarmed",
                "damage": {
                    "base": {
                        "damageType": "slashing",
                        "dice": 1,
                        "die": "d6"
                    }
                },
                "group": "brawling",
                "key": "Strike",
                "label": "Claws",
                "range": null,
                "traits": [
                    "finesse",
                    "unarmed",
                    "agile"
                ]
            }
        ],
        "source": {
            "value": ""
        },
        "traits": {
            "custom": "",
            "rarity": {
                "value": "common"
            },
            "value": [
                "catfolk"
            ]
        }
    },
    "effects": [],
    "flags": {},
    "img": "systems/pf2e/icons/features/ancestry/clawed-catfolk.webp",
    "name": "Clawed Catfolk",
    "type": "feat"
}
