{
    "_id": "isJhIPhT4MsjJvoq",
    "data": {
        "actionCategory": {
            "value": ""
        },
        "actionType": {
            "value": "passive"
        },
        "actions": {
            "value": null
        },
        "description": {
            "value": "<p>You come from a long line of fisherfolk and have inherited the quick reflexes necessary to nab and reel in big game. If you roll a success on an attempt to @Compendium[pf2e.actionspf2e.Grab an Edge]{Grab an Edge}, you get a critical success instead; if you roll a critical failure, you get a failure instead. A creature that rolls a failure on a check to @Compendium[pf2e.actionspf2e.Disarm]{Disarm} you gets a critical failure instead.</p>"
        },
        "featType": {
            "value": "heritage"
        },
        "level": {
            "value": 0
        },
        "location": "",
        "prerequisites": {
            "value": []
        },
        "rules": [],
        "source": {
            "value": "Pathfinder #153: Life's Long Shadows"
        },
        "traits": {
            "custom": "",
            "rarity": {
                "value": "common"
            },
            "value": [
                "shoony"
            ]
        }
    },
    "effects": [],
    "flags": {},
    "img": "systems/pf2e/icons/features/ancestry/fishseeker-shoony.webp",
    "name": "Fishseeker Shoony",
    "type": "feat"
}
