{
    "_id": "fWT7Mo2vFC10H4Wq",
    "data": {
        "actionCategory": {
            "value": ""
        },
        "actionType": {
            "value": "passive"
        },
        "actions": {
            "value": null
        },
        "description": {
            "value": "<p>You descend from a talented line of strix storytellers. From the highest mountains and purest landscapes where your lungs fill with glorious clean air, you trill, whistle, and croon sweet songs. While natural sounds make you predisposed to sing, voices make you predisposed to mimicry. You receive a +1 circumstance bonus on Deception checks to Impersonate a mimicked voice, where the sound of the voice is the only factor; if you are a master in Deception, you gain a +2 circumstance bonus instead. You also gain a +1 circumstance bonus on Performance checks to sing; if you are a master in Performance, you gain a +2 circumstance bonus instead.</p>"
        },
        "featType": {
            "value": "heritage"
        },
        "level": {
            "value": 0
        },
        "location": "",
        "prerequisites": {
            "value": []
        },
        "rules": [],
        "source": {
            "value": ""
        },
        "traits": {
            "custom": "",
            "rarity": {
                "value": "common"
            },
            "value": [
                "strix"
            ]
        }
    },
    "effects": [],
    "flags": {},
    "img": "systems/pf2e/icons/default-icons/feat.svg",
    "name": "Songbird Strix",
    "type": "feat"
}
