{
    "_id": "ig06ikA6rnNP1JUb",
    "data": {
        "actionCategory": {
            "value": ""
        },
        "actionType": {
            "value": "passive"
        },
        "actions": {
            "value": null
        },
        "description": {
            "value": "<p><strong>[Downtime][Limited Use]</strong> □</p>\n<p><strong>Effect</strong>: Your connections with leaders within the Pathfinder Society help you find opportunities, both new missions and support for your other endeavors. Check the box that precedes this boon when you @Compendium[pf2e.actionspf2e.Earn Income]{Earn Income} during Downtime to attempt a task of level _. If you critically fail the check, you still earn the result of a failure for that task.</p>"
        },
        "featType": {
            "value": "pfsboon"
        },
        "level": {
            "value": 0
        },
        "prerequisites": {
            "value": []
        },
        "rules": [],
        "source": {
            "value": ""
        },
        "traits": {
            "custom": "",
            "rarity": {
                "value": "common"
            },
            "value": []
        }
    },
    "effects": [],
    "flags": {},
    "img": "systems/pf2e/icons/default-icons/mystery-man.webp",
    "name": "S1-01 - Society Connections",
    "type": "feat"
}
