{
    "_id": "WYHPJyza1BJgtFq4",
    "data": {
        "actionCategory": {
            "value": ""
        },
        "actionType": {
            "value": "reaction"
        },
        "actions": {
            "value": null
        },
        "description": {
            "value": "<p><strong>[Generic][Limited Use]</strong> □□□</p>\n<p><strong>Action</strong>: Reaction</p>\n<p data-visibility=\"gm\"><strong>Trigger</strong>: You would fail (but don't critically fail) a Reflex save to avoid a trap's effects.</p>\n<p><strong>Effect</strong>: You @Compendium[pf2e.actionspf2e.Step]{Step} and then @Compendium[pf2e.actionspf2e.Drop Prone]{Drop Prone} in your new location. You gain a +2 circumstance bonus to your triggering Reflex save. If this would have been enough to resist the trap's effects initially, you succeed at the save instead.</p>"
        },
        "featType": {
            "value": "pfsboon"
        },
        "level": {
            "value": 0
        },
        "prerequisites": {
            "value": []
        },
        "rules": [],
        "source": {
            "value": ""
        },
        "traits": {
            "custom": "",
            "rarity": {
                "value": "common"
            },
            "value": []
        }
    },
    "effects": [],
    "flags": {},
    "img": "systems/pf2e/icons/default-icons/mystery-man.webp",
    "name": "S1-Q01 - Sand Slide",
    "type": "feat"
}
