{
    "_id": "pf9yvKNg6jZLrE30",
    "data": {
        "description": {
            "value": "<p>Granted by @Compendium[pf2e.feats-srd.Tiger Stance]{Tiger Stance}</p>\n<p>You enter the stance of a tiger and can make tiger claw attacks. These deal 1d8 slashing damage; are in the brawling group; and have the agile, finesse, nonlethal, and unarmed traits.</p>\n<p>On a critical success with your tiger claws, if you deal damage, the target takes [[/r {1d4}[persistent,bleed]]] @Compendium[pf2e.conditionitems.Persistent Damage]{Persistent Bleed Damage}.</p>\n<p>As long as your Speed is at least 20 feet while in Tiger Stance, you can Step 10 feet.</p>"
        },
        "duration": {
            "expiry": "turn-start",
            "sustained": false,
            "unit": "unlimited",
            "value": -1
        },
        "level": {
            "value": 0
        },
        "rules": [
            {
                "category": "unarmed",
                "damage": {
                    "base": {
                        "damageType": "slashing",
                        "dice": 1,
                        "die": "d8"
                    }
                },
                "group": "brawling",
                "key": "Strike",
                "label": "Tiger Claw",
                "range": null,
                "traits": [
                    "agile",
                    "finesse",
                    "unarmed",
                    "nonlethal"
                ]
            },
            {
                "key": "Note",
                "outcome": [
                    "criticalSuccess"
                ],
                "selector": "tiger-claw-damage",
                "text": "<p class='compact-text'><strong> Tiger Stance</strong> On a critical success with your tiger claws, if you deal damage, the target takes [[/r {1d4}[persistent,bleed]]] @Compendium[pf2e.conditionitems.Persistent Damage]{Persistent Bleed Damage}.</p>"
            }
        ],
        "source": {
            "value": ""
        },
        "start": {
            "initiative": null,
            "value": 0
        },
        "target": null,
        "tokenIcon": {
            "show": true
        },
        "traits": {
            "custom": "",
            "rarity": {
                "value": "common"
            },
            "value": []
        }
    },
    "effects": [],
    "flags": {},
    "img": "systems/pf2e/icons/features/feats/tiger-stance.webp",
    "name": "Stance: Tiger Stance",
    "type": "effect"
}
