{
    "_id": "x26dyZZZRvZpzK2X",
    "data": {
        "abilities": {
            "cha": {
                "mod": 8
            },
            "con": {
                "mod": 4
            },
            "dex": {
                "mod": 5
            },
            "int": {
                "mod": 5
            },
            "str": {
                "mod": 6
            },
            "wis": {
                "mod": 6
            }
        },
        "attributes": {
            "ac": {
                "details": "",
                "value": 36
            },
            "allSaves": {
                "value": "+2 To Will Saves vs. Emotion"
            },
            "hp": {
                "details": "",
                "max": 305,
                "temp": 0,
                "value": 305
            },
            "initiative": {
                "ability": "perception"
            },
            "perception": {
                "value": 29
            },
            "shield": {
                "ac": 0,
                "brokenThreshold": 0,
                "hardness": 0,
                "max": 0,
                "value": 0
            },
            "speed": {
                "otherSpeeds": [],
                "value": "40"
            }
        },
        "details": {
            "alignment": {
                "value": "CE"
            },
            "blurb": "",
            "creatureType": "Aberration",
            "level": {
                "value": 15
            },
            "privateNotes": "",
            "publicNotes": "<p>This three-armed, three-legged monster has no discernible eyes, nose, ears, or mouth or no visible means of ingesting food. Its limbs are distributed so evenly across its body that it is all but impossible to tell which way the creature is oriented at any given time. Few who witness the quelaunt linger on its alien looks for long though, as the most pressing concern quickly becomes the invasion of their minds, as the quelaunt sows doubt, sorrow, and rage. This monstrosity not only delights in the negative emotions of its prey, but feeds on them, gaining strength and sustenance from their dismay. For the quelaunt, no act is too terrible or cruel to inflict on its victims, since the more a creature suffers, the more the quelaunt feasts.</p>\n<p>Quelaunts are known to associate with other aberrant horrors, including brain collectors and other creatures associated with the Dominion of the Black. However, the more prevalent theory paints them as more alien-perhaps invasive beings from another dimension of pure thought and feeling-and claims that in their natural state they have no physical bodies at all. Few dare speculate further; the only known autopsy of a quelaunt resulted in the researcher's suicide just days afterward and all the notes were mysteriously destroyed. Whatever secrets there are to be unlocked in the anatomy of these bizarre monsters are apparently important enough to warrant great protection from quelaunts, even after death.</p>",
            "source": {
                "value": "Pathfinder Bestiary"
            }
        },
        "resources": {
            "focus": {
                "max": 1,
                "value": 1
            }
        },
        "saves": {
            "fortitude": {
                "saveDetail": "",
                "value": 27
            },
            "reflex": {
                "saveDetail": "",
                "value": 26
            },
            "will": {
                "saveDetail": "",
                "value": 31
            }
        },
        "traits": {
            "ci": [],
            "di": {
                "custom": "",
                "value": []
            },
            "dr": [
                {
                    "label": "Mental",
                    "type": "mental",
                    "value": "15"
                }
            ],
            "dv": [],
            "languages": {
                "custom": "Telepathy 100 feet, Can't Speak Any Language",
                "selected": [],
                "value": [
                    "aklo"
                ]
            },
            "rarity": {
                "value": "common"
            },
            "senses": {
                "value": "tremorsense (imprecise) 60 feet"
            },
            "size": {
                "value": "lg"
            },
            "traits": {
                "custom": "",
                "value": [
                    "aberration"
                ]
            }
        }
    },
    "effects": [],
    "flags": {},
    "img": "systems/pf2e/icons/default-icons/npc.svg",
    "items": [
        {
            "_id": "KyWT6DPfwI2KXz6G",
            "data": {
                "autoHeightenLevel": {
                    "value": null
                },
                "description": {
                    "value": ""
                },
                "displayLevels": {},
                "prepared": {
                    "flexible": false,
                    "value": "innate"
                },
                "proficiency": {
                    "value": 0
                },
                "rules": [],
                "showSlotlessLevels": {
                    "value": true
                },
                "showUnpreparedSpells": {
                    "value": false
                },
                "signatureSpells": {
                    "value": []
                },
                "slots": {
                    "slot0": {
                        "max": 0,
                        "prepared": [],
                        "value": 0
                    },
                    "slot1": {
                        "max": 0,
                        "prepared": [],
                        "value": 0
                    },
                    "slot10": {
                        "max": 0,
                        "prepared": [],
                        "value": 0
                    },
                    "slot11": {
                        "max": 0,
                        "prepared": [],
                        "value": 0
                    },
                    "slot2": {
                        "max": 0,
                        "prepared": [],
                        "value": 0
                    },
                    "slot3": {
                        "max": 0,
                        "prepared": [],
                        "value": 0
                    },
                    "slot4": {
                        "max": 0,
                        "prepared": [],
                        "value": 0
                    },
                    "slot5": {
                        "max": 0,
                        "prepared": [],
                        "value": 0
                    },
                    "slot6": {
                        "max": 0,
                        "prepared": [],
                        "value": 0
                    },
                    "slot7": {
                        "max": 3,
                        "prepared": [],
                        "value": 3
                    },
                    "slot8": {
                        "max": 0,
                        "prepared": [],
                        "value": 0
                    },
                    "slot9": {
                        "max": 0,
                        "prepared": [],
                        "value": 0
                    }
                },
                "slug": null,
                "source": {
                    "value": ""
                },
                "spelldc": {
                    "dc": 39,
                    "mod": 0,
                    "value": 31
                },
                "tradition": {
                    "value": "occult"
                },
                "traits": {
                    "custom": "",
                    "rarity": {
                        "value": "common"
                    },
                    "value": []
                }
            },
            "effects": [],
            "flags": {},
            "img": "systems/pf2e/icons/default-icons/spellcastingEntry.svg",
            "name": "Innate Occult Spells",
            "sort": 100000,
            "type": "spellcastingEntry"
        },
        {
            "_id": "UPr5yGyNCCUcWX3d",
            "data": {
                "autoHeightenLevel": {
                    "value": null
                },
                "description": {
                    "value": ""
                },
                "displayLevels": {},
                "prepared": {
                    "value": "focus"
                },
                "proficiency": {
                    "value": 0
                },
                "rules": [],
                "showSlotlessLevels": {
                    "value": true
                },
                "showUnpreparedSpells": {
                    "value": true
                },
                "signatureSpells": {
                    "value": []
                },
                "slots": {
                    "slot0": {
                        "max": 0,
                        "prepared": [],
                        "value": 0
                    },
                    "slot1": {
                        "max": 0,
                        "prepared": [],
                        "value": 0
                    },
                    "slot10": {
                        "max": 0,
                        "prepared": [],
                        "value": 0
                    },
                    "slot11": {
                        "max": 0,
                        "prepared": [],
                        "value": 0
                    },
                    "slot2": {
                        "max": 0,
                        "prepared": [],
                        "value": 0
                    },
                    "slot3": {
                        "max": 0,
                        "prepared": [],
                        "value": 0
                    },
                    "slot4": {
                        "max": 0,
                        "prepared": [],
                        "value": 0
                    },
                    "slot5": {
                        "max": 0,
                        "prepared": [],
                        "value": 0
                    },
                    "slot6": {
                        "max": 0,
                        "prepared": [],
                        "value": 0
                    },
                    "slot7": {
                        "max": 0,
                        "prepared": [],
                        "value": 0
                    },
                    "slot8": {
                        "max": 0,
                        "prepared": [],
                        "value": 0
                    },
                    "slot9": {
                        "max": 0,
                        "prepared": [],
                        "value": 0
                    }
                },
                "slug": null,
                "source": {
                    "value": ""
                },
                "spelldc": {
                    "dc": 39,
                    "mod": 0,
                    "value": 31
                },
                "tradition": {
                    "value": "occult"
                },
                "traits": {
                    "custom": "",
                    "rarity": {
                        "value": "common"
                    },
                    "value": []
                }
            },
            "effects": [],
            "flags": {},
            "img": "systems/pf2e/icons/default-icons/spellcastingEntry.svg",
            "name": "At-Will Focus Spells",
            "sort": 200000,
            "type": "spellcastingEntry"
        },
        {
            "_id": "GQXhzdun5RNKjhPx",
            "data": {
                "ability": {
                    "value": ""
                },
                "area": {
                    "areaType": "",
                    "value": ""
                },
                "areasize": {
                    "value": ""
                },
                "autoHeightenLevel": {
                    "value": null
                },
                "category": {
                    "value": "focus"
                },
                "components": {
                    "focus": false,
                    "material": false,
                    "somatic": true,
                    "verbal": true
                },
                "cost": {
                    "value": ""
                },
                "damage": {
                    "value": {}
                },
                "description": {
                    "value": "<p>You strengthen a target's ambition, increase its resentment of allies, and make its allegiances more susceptible to change. The target must attempt a Will save.</p>\n<hr />\n<p><strong>Critical Success</strong> The target is unaffected.</p>\n<p><strong>Success</strong> The target takes a -1 status penalty to its saving throws and other defenses against attempts to Coerce it, Request something of it, or use mental effects to convince it to do something (such as a <em>@Compendium[pf2e.spells-srd.Suggestion]{Suggestion}</em> spell). This penalty applies only if the target is being encouraged to advance its own ambitions.</p>\n<p><strong>Failure</strong> As success, but the penalty is -2.</p>\n<p><strong>Critical Failure</strong> The target is overcome with ambition, taking whatever actions would advance its own agenda over those of anyone else, even without attempts to convince it.</p>"
                },
                "duration": {
                    "value": "10 minutes"
                },
                "hasCounteractCheck": {
                    "value": false
                },
                "level": {
                    "value": 8
                },
                "location": {
                    "value": "UPr5yGyNCCUcWX3d"
                },
                "materials": {
                    "value": ""
                },
                "prepared": {
                    "value": ""
                },
                "primarycheck": {
                    "value": ""
                },
                "range": {
                    "value": "60 feet"
                },
                "rules": [],
                "save": {
                    "basic": "",
                    "value": "will"
                },
                "school": {
                    "value": "enchantment"
                },
                "secondarycasters": {
                    "value": ""
                },
                "secondarycheck": {
                    "value": ""
                },
                "slug": "blind-ambition",
                "source": {
                    "value": ""
                },
                "spellType": {
                    "value": "save"
                },
                "sustained": {
                    "value": false
                },
                "target": {
                    "value": "1 creature"
                },
                "time": {
                    "value": "2"
                },
                "traditions": {
                    "value": []
                },
                "traits": {
                    "custom": "",
                    "rarity": {
                        "value": "uncommon"
                    },
                    "value": [
                        "emotion",
                        "mental",
                        "cleric"
                    ]
                }
            },
            "effects": [],
            "flags": {
                "core": {
                    "sourceId": "Compendium.pf2e.spells-srd.Dj44lViYKvOJ8a53"
                }
            },
            "img": "systems/pf2e/icons/spells/blind-ambition.webp",
            "name": "Blind Ambition (At Will)",
            "sort": 300000,
            "type": "spell"
        },
        {
            "_id": "mG5ltpJtXC7h37Ls",
            "data": {
                "ability": {
                    "value": ""
                },
                "area": {
                    "areaType": "emanation",
                    "value": ""
                },
                "areasize": {
                    "value": "15-foot emanation"
                },
                "autoHeightenLevel": {
                    "value": null
                },
                "category": {
                    "value": "focus"
                },
                "components": {
                    "focus": false,
                    "material": false,
                    "somatic": true,
                    "verbal": true
                },
                "cost": {
                    "value": ""
                },
                "damage": {
                    "value": {}
                },
                "description": {
                    "value": "<p>You become intensely entrancing, and creatures are distracted by you as long as they remain within the area. You can exclude any creatures you choose from the effects. When a creature enters the area for the first time, it must attempt a Will saving throw. If a creature leaves and reenters, it uses the results of its original save.</p>\n<p>Emanation is 75 feet at 8th level</p>\n<hr />\n<p><strong>Critical Success</strong> The creature is unaffected and temporarily immune for 1 hour.</p>\n<p><strong>Success</strong> The creature is @Compendium[pf2e.conditionitems.Fascinated]{Fascinated} with you for its next action, then is temporarily immune for 1 hour.</p>\n<p><strong>Failure</strong> The creature is Fascinated with you.</p>\n<p><strong>Critical Failure</strong> The creature is Fascinated with you, and its attitude toward you improves by one step.</p>\n<hr />\n<p><strong>Heightened (+1)</strong> Increase the size of the emanation by 15 feet.</p>"
                },
                "duration": {
                    "value": "1 minute"
                },
                "hasCounteractCheck": {
                    "value": false
                },
                "level": {
                    "value": 8
                },
                "location": {
                    "value": "UPr5yGyNCCUcWX3d"
                },
                "materials": {
                    "value": ""
                },
                "prepared": {
                    "value": ""
                },
                "primarycheck": {
                    "value": ""
                },
                "range": {
                    "value": ""
                },
                "rules": [],
                "save": {
                    "basic": "",
                    "value": "will"
                },
                "school": {
                    "value": "enchantment"
                },
                "secondarycasters": {
                    "value": ""
                },
                "secondarycheck": {
                    "value": ""
                },
                "slug": "captivating-adoration",
                "source": {
                    "value": ""
                },
                "spellType": {
                    "value": "save"
                },
                "sustained": {
                    "value": false
                },
                "target": {
                    "value": ""
                },
                "time": {
                    "value": "2"
                },
                "traditions": {
                    "value": []
                },
                "traits": {
                    "custom": "",
                    "rarity": {
                        "value": "uncommon"
                    },
                    "value": [
                        "visual",
                        "emotion",
                        "mental",
                        "cleric"
                    ]
                }
            },
            "effects": [],
            "flags": {
                "core": {
                    "sourceId": "Compendium.pf2e.spells-srd.jJphHQlENHFlSElH"
                }
            },
            "img": "systems/pf2e/icons/spells/captivating-adoration.webp",
            "name": "Captivating Adoration (At Will)",
            "sort": 400000,
            "type": "spell"
        },
        {
            "_id": "haUO8rhht2ZadfFw",
            "data": {
                "ability": {
                    "value": ""
                },
                "area": {
                    "areaType": "",
                    "value": ""
                },
                "areasize": {
                    "value": ""
                },
                "autoHeightenLevel": {
                    "value": null
                },
                "category": {
                    "value": "focus"
                },
                "components": {
                    "focus": false,
                    "material": false,
                    "somatic": true,
                    "verbal": true
                },
                "cost": {
                    "value": ""
                },
                "damage": {
                    "value": {}
                },
                "description": {
                    "value": "<p>You make the target overconfident, leading it to ascribe failure to external factors. If the target fails at an attack roll or skill check, it takes a -1 status penalty to attack rolls and skill checks until the end of its turn (or the end of its next turn, if it attempted the roll outside its turn). If the creature fails a second time while taking this penalty, the penalty increases to -2. The duration depends on the target's Will save. After attempting its save, the creature becomes temporarily immune for 24 hours.</p>\n<hr /><strong>Critical Success</strong> The target is unaffected.\n<p><strong>Success</strong> The duration is 1 round.</p>\n<p><strong>Failure</strong> The duration is 10 minutes.</p>\n<p><strong>Critical Failure</strong> The duration is 24 hours.</p>"
                },
                "duration": {
                    "value": "varies"
                },
                "hasCounteractCheck": {
                    "value": false
                },
                "level": {
                    "value": 8
                },
                "location": {
                    "value": "UPr5yGyNCCUcWX3d"
                },
                "materials": {
                    "value": ""
                },
                "prepared": {
                    "value": ""
                },
                "primarycheck": {
                    "value": ""
                },
                "range": {
                    "value": "30 feet"
                },
                "rules": [],
                "save": {
                    "basic": "",
                    "value": "will"
                },
                "school": {
                    "value": "enchantment"
                },
                "secondarycasters": {
                    "value": ""
                },
                "secondarycheck": {
                    "value": ""
                },
                "slug": "delusional-pride",
                "source": {
                    "value": ""
                },
                "spellType": {
                    "value": "save"
                },
                "sustained": {
                    "value": false
                },
                "target": {
                    "value": "1 creature"
                },
                "time": {
                    "value": "2"
                },
                "traditions": {
                    "value": []
                },
                "traits": {
                    "custom": "",
                    "rarity": {
                        "value": "uncommon"
                    },
                    "value": [
                        "emotion",
                        "mental",
                        "cleric"
                    ]
                }
            },
            "effects": [],
            "flags": {
                "core": {
                    "sourceId": "Compendium.pf2e.spells-srd.J8pL8yTshga8QOk8"
                }
            },
            "img": "systems/pf2e/icons/spells/delusional-pride.webp",
            "name": "Delusional Pride (At Will)",
            "sort": 500000,
            "type": "spell"
        },
        {
            "_id": "IVhu9nuAu3XZJtZM",
            "data": {
                "ability": {
                    "value": ""
                },
                "area": {
                    "areaType": "cone",
                    "value": "30"
                },
                "areasize": {
                    "value": "30-foot cone"
                },
                "autoHeightenLevel": {
                    "value": null
                },
                "category": {
                    "value": "spell"
                },
                "components": {
                    "focus": false,
                    "material": false,
                    "somatic": true,
                    "verbal": true
                },
                "cost": {
                    "value": ""
                },
                "damage": {
                    "value": {}
                },
                "description": {
                    "value": "<p>You inflict despair on creatures in the area. The effects for each creature are determined by its Will save.</p>\n<hr />\n<p><strong>Critical Success</strong> The creature is unaffected.</p>\n<p><strong>Success</strong> For 1 round, the creature can't use reactions and must attempt another save at the start of its turn; on a failure, it is @Compendium[pf2e.conditionitems.Slowed]{Slowed 1} for that turn as it sobs uncontrollably.</p>\n<p><strong>Failure</strong> As success, but the duration is 1 minute.</p>\n<p><strong>Critical Failure</strong> As failure, and the creature is automatically @Compendium[pf2e.conditionitems.Slowed]{Slowed 1} for 1 minute.</p>\n<hr />\n<p><strong>Heightened (7th)</strong> The area increases to a 60-foot cone.</p>"
                },
                "duration": {
                    "value": "1 or more rounds"
                },
                "hasCounteractCheck": {
                    "value": false
                },
                "level": {
                    "value": 7
                },
                "location": {
                    "value": "KyWT6DPfwI2KXz6G"
                },
                "materials": {
                    "value": ""
                },
                "prepared": {
                    "value": ""
                },
                "primarycheck": {
                    "value": ""
                },
                "range": {
                    "value": ""
                },
                "rules": [],
                "save": {
                    "basic": "",
                    "value": "will"
                },
                "school": {
                    "value": "enchantment"
                },
                "secondarycasters": {
                    "value": ""
                },
                "secondarycheck": {
                    "value": ""
                },
                "slug": "crushing-despair",
                "source": {
                    "value": "Pathfinder Core Rulebook"
                },
                "spellType": {
                    "value": "save"
                },
                "sustained": {
                    "value": false
                },
                "target": {
                    "value": ""
                },
                "time": {
                    "value": "2"
                },
                "traditions": {
                    "value": [
                        "arcane",
                        "occult"
                    ]
                },
                "traits": {
                    "custom": "",
                    "rarity": {
                        "value": "common"
                    },
                    "value": [
                        "emotion",
                        "mental"
                    ]
                }
            },
            "effects": [],
            "flags": {
                "core": {
                    "sourceId": "Compendium.pf2e.spells-srd.GaRQlC9Yw1BGKHfN"
                }
            },
            "img": "systems/pf2e/icons/spells/chrusing-dispair.webp",
            "name": "Crushing Despair",
            "sort": 600000,
            "type": "spell"
        },
        {
            "_id": "Jk4IKR3T9Yg1uS2t",
            "data": {
                "ability": {
                    "value": ""
                },
                "area": {
                    "areaType": "",
                    "value": ""
                },
                "areasize": {
                    "value": ""
                },
                "autoHeightenLevel": {
                    "value": null
                },
                "category": {
                    "value": "spell"
                },
                "components": {
                    "focus": false,
                    "material": false,
                    "somatic": true,
                    "verbal": true
                },
                "cost": {
                    "value": ""
                },
                "damage": {
                    "value": {}
                },
                "description": {
                    "value": "<p>The target can walk on air as if it were solid ground. It can ascend and descend in this way at a maximum of a 45-degree angle.</p>"
                },
                "duration": {
                    "value": "5 minutes"
                },
                "hasCounteractCheck": {
                    "value": false
                },
                "level": {
                    "value": 4
                },
                "location": {
                    "value": "KyWT6DPfwI2KXz6G"
                },
                "materials": {
                    "value": ""
                },
                "prepared": {
                    "value": ""
                },
                "primarycheck": {
                    "value": ""
                },
                "range": {
                    "value": "touch"
                },
                "rules": [],
                "save": {
                    "basic": "",
                    "value": ""
                },
                "school": {
                    "value": "transmutation"
                },
                "secondarycasters": {
                    "value": ""
                },
                "secondarycheck": {
                    "value": ""
                },
                "slug": "air-walk",
                "source": {
                    "value": ""
                },
                "spellType": {
                    "value": "utility"
                },
                "sustained": {
                    "value": false
                },
                "target": {
                    "value": "1 creature"
                },
                "time": {
                    "value": "2"
                },
                "traditions": {
                    "value": [
                        "divine",
                        "primal"
                    ]
                },
                "traits": {
                    "custom": "",
                    "rarity": {
                        "value": "common"
                    },
                    "value": [
                        "air"
                    ]
                }
            },
            "effects": [],
            "flags": {
                "core": {
                    "sourceId": "Compendium.pf2e.spells-srd.b5sGjGlBf58f8jn0"
                }
            },
            "img": "systems/pf2e/icons/spells/air-walk.webp",
            "name": "Air Walk (Constant)",
            "sort": 700000,
            "type": "spell"
        },
        {
            "_id": "sTPCkN9Q8dDFFIK3",
            "data": {
                "ability": {
                    "value": ""
                },
                "area": {
                    "areaType": "",
                    "value": ""
                },
                "areasize": {
                    "value": ""
                },
                "autoHeightenLevel": {
                    "value": null
                },
                "category": {
                    "value": "spell"
                },
                "components": {
                    "focus": false,
                    "material": false,
                    "somatic": true,
                    "verbal": true
                },
                "cost": {
                    "value": ""
                },
                "damage": {
                    "value": {}
                },
                "description": {
                    "value": "<p>You plant fear in the target; it must attempt a Will save.</p>\n<hr />\n<p><strong>Critical Success</strong> The target is unaffected.</p>\n<p><strong>Success</strong> The target is @Compendium[pf2e.conditionitems.Frightened]{Frightened 1}.</p>\n<p><strong>Failure</strong> The target is @Compendium[pf2e.conditionitems.Frightened]{Frightened 2}.</p>\n<p><strong>Critical Failure</strong> The target is @Compendium[pf2e.conditionitems.Frightened]{Frightened 3} and @Compendium[pf2e.conditionitems.Fleeing]{Fleeing} for 1 round.</p>\n<hr />\n<p><strong>Heightened (3rd)</strong> You can target up to five creatures.</p>"
                },
                "duration": {
                    "value": "varies"
                },
                "hasCounteractCheck": {
                    "value": false
                },
                "level": {
                    "value": 3
                },
                "location": {
                    "value": "KyWT6DPfwI2KXz6G"
                },
                "materials": {
                    "value": ""
                },
                "prepared": {
                    "value": ""
                },
                "primarycheck": {
                    "value": ""
                },
                "range": {
                    "value": "30 feet"
                },
                "rules": [],
                "save": {
                    "basic": "",
                    "value": "will"
                },
                "school": {
                    "value": "enchantment"
                },
                "secondarycasters": {
                    "value": ""
                },
                "secondarycheck": {
                    "value": ""
                },
                "slug": "fear",
                "source": {
                    "value": ""
                },
                "spellType": {
                    "value": "save"
                },
                "sustained": {
                    "value": false
                },
                "target": {
                    "value": "1 creature"
                },
                "time": {
                    "value": "2"
                },
                "traditions": {
                    "value": [
                        "arcane",
                        "divine",
                        "occult",
                        "primal"
                    ]
                },
                "traits": {
                    "custom": "",
                    "rarity": {
                        "value": "common"
                    },
                    "value": [
                        "emotion",
                        "fear",
                        "mental"
                    ]
                }
            },
            "effects": [],
            "flags": {
                "core": {
                    "sourceId": "Compendium.pf2e.spells-srd.4koZzrnMXhhosn0D"
                }
            },
            "img": "systems/pf2e/icons/spells/fear.webp",
            "name": "Fear (At Will)",
            "sort": 800000,
            "type": "spell"
        },
        {
            "_id": "MXq3sZQCIQe1HvNf",
            "data": {
                "ability": {
                    "value": ""
                },
                "area": {
                    "areaType": "",
                    "value": null
                },
                "areasize": {
                    "value": ""
                },
                "autoHeightenLevel": {
                    "value": null
                },
                "category": {
                    "value": "spell"
                },
                "components": {
                    "focus": false,
                    "material": false,
                    "somatic": true,
                    "verbal": true
                },
                "cost": {
                    "value": ""
                },
                "damage": {
                    "value": {}
                },
                "description": {
                    "value": "<p>The target is overtaken with uncontrollable laughter. It must attempt a Will save.</p>\n<hr /><strong>Critical Success</strong> The target is unaffected.\n<p><strong>Success</strong> The target is plagued with uncontrollable laugher. It can't use reactions.</p>\n<p><strong>Failure</strong> The target is @Compendium[pf2e.conditionitems.Slowed]{Slowed 1} and can't use reactions.</p>\n<p><strong>Critical Failure</strong> The target falls @Compendium[pf2e.conditionitems.Prone]{Prone} and can't use actions or reactions for 1 round. It then suffers the failure effects.</p>"
                },
                "duration": {
                    "value": "sustained"
                },
                "hasCounteractCheck": {
                    "value": false
                },
                "level": {
                    "value": 2
                },
                "location": {
                    "value": "KyWT6DPfwI2KXz6G"
                },
                "materials": {
                    "value": ""
                },
                "prepared": {
                    "value": ""
                },
                "primarycheck": {
                    "value": ""
                },
                "range": {
                    "value": "30 feet"
                },
                "rules": [],
                "save": {
                    "basic": "",
                    "value": "will"
                },
                "school": {
                    "value": "enchantment"
                },
                "secondarycasters": {
                    "value": ""
                },
                "secondarycheck": {
                    "value": ""
                },
                "slug": "hideous-laughter",
                "source": {
                    "value": ""
                },
                "spellType": {
                    "value": "save"
                },
                "sustained": {
                    "value": false
                },
                "target": {
                    "value": "1 living creature"
                },
                "time": {
                    "value": "2"
                },
                "traditions": {
                    "value": [
                        "arcane",
                        "occult"
                    ]
                },
                "traits": {
                    "custom": "",
                    "rarity": {
                        "value": "common"
                    },
                    "value": [
                        "emotion",
                        "mental"
                    ]
                }
            },
            "effects": [],
            "flags": {
                "core": {
                    "sourceId": "Compendium.pf2e.spells-srd.tlSE7Ly8vi1Dgddv"
                }
            },
            "img": "systems/pf2e/icons/spells/hideous-laughter.webp",
            "name": "Hideous Laughter",
            "sort": 900000,
            "type": "spell"
        },
        {
            "_id": "zEMUKIwgy7ajyUpa",
            "data": {
                "attack": {
                    "value": ""
                },
                "attackEffects": {
                    "value": []
                },
                "bonus": {
                    "value": 30
                },
                "damageRolls": {
                    "8b4m8ibns69dcpoqko3l": {
                        "damage": "3d8+12",
                        "damageType": "slashing"
                    }
                },
                "description": {
                    "value": ""
                },
                "rules": [],
                "slug": null,
                "source": {
                    "value": ""
                },
                "traits": {
                    "custom": "",
                    "rarity": {
                        "value": "common"
                    },
                    "value": [
                        "agile",
                        "magical",
                        "reach-10"
                    ]
                },
                "weaponType": {
                    "value": "melee"
                }
            },
            "effects": [],
            "flags": {},
            "img": "systems/pf2e/icons/default-icons/melee.svg",
            "name": "Claw",
            "sort": 1000000,
            "type": "melee"
        },
        {
            "_id": "F29fZkd5IEJnrm3X",
            "data": {
                "actionCategory": {
                    "value": "interaction"
                },
                "actionType": {
                    "value": "passive"
                },
                "actions": {
                    "value": null
                },
                "description": {
                    "value": "<p>@Localize[PF2E.NPC.Abilities.Glossary.Tremorsense]</p>"
                },
                "requirements": {
                    "value": ""
                },
                "rules": [],
                "slug": "tremorsense",
                "source": {
                    "value": ""
                },
                "traits": {
                    "custom": "",
                    "rarity": {
                        "value": "common"
                    },
                    "value": []
                },
                "trigger": {
                    "value": ""
                },
                "weapon": {
                    "value": ""
                }
            },
            "effects": [],
            "flags": {
                "core": {
                    "sourceId": "Compendium.pf2e.bestiary-ability-glossary-srd.j2wsK6IsW5yMW1jW"
                }
            },
            "img": "systems/pf2e/icons/actions/Passive.webp",
            "name": "Tremorsense (Imprecise) 60 feet",
            "sort": 1100000,
            "type": "action"
        },
        {
            "_id": "PcZlEIt8YHtvvfMm",
            "data": {
                "actionCategory": {
                    "value": "interaction"
                },
                "actionType": {
                    "value": "passive"
                },
                "actions": {
                    "value": null
                },
                "description": {
                    "value": "<p>@Localize[PF2E.NPC.Abilities.Glossary.Telepathy]</p>"
                },
                "requirements": {
                    "value": ""
                },
                "rules": [],
                "slug": "telepathy",
                "source": {
                    "value": ""
                },
                "traits": {
                    "custom": "",
                    "rarity": {
                        "value": "common"
                    },
                    "value": [
                        "aura",
                        "divination",
                        "magical"
                    ]
                },
                "trigger": {
                    "value": ""
                },
                "weapon": {
                    "value": ""
                }
            },
            "effects": [],
            "flags": {
                "core": {
                    "sourceId": "Compendium.pf2e.bestiary-ability-glossary-srd.kdhbPaBMK1d1fpbA"
                }
            },
            "img": "systems/pf2e/icons/actions/Passive.webp",
            "name": "Telepathy 100 feet",
            "sort": 1200000,
            "type": "action"
        },
        {
            "_id": "Nx9MSacAcR7AMtSC",
            "data": {
                "actionCategory": {
                    "value": "interaction"
                },
                "actionType": {
                    "value": "passive"
                },
                "actions": {
                    "value": null
                },
                "description": {
                    "value": "<p>@Localize[PF2E.NPC.Abilities.Glossary.AtWillSpells]</p>"
                },
                "requirements": {
                    "value": ""
                },
                "rules": [],
                "slug": "at-will-spells",
                "source": {
                    "value": ""
                },
                "traits": {
                    "custom": "",
                    "rarity": {
                        "value": "common"
                    },
                    "value": []
                },
                "trigger": {
                    "value": ""
                },
                "weapon": {
                    "value": ""
                }
            },
            "effects": [],
            "flags": {
                "core": {
                    "sourceId": "Compendium.pf2e.bestiary-ability-glossary-srd.2YRDYVnC1eljaXKK"
                }
            },
            "img": "systems/pf2e/icons/actions/Passive.webp",
            "name": "At-Will Spells",
            "sort": 1300000,
            "type": "action"
        },
        {
            "_id": "wf3MbY00H5haDSse",
            "data": {
                "actionCategory": {
                    "value": "interaction"
                },
                "actionType": {
                    "value": "passive"
                },
                "actions": {
                    "value": null
                },
                "description": {
                    "value": "<hr />\n<p>@Localize[PF2E.NPC.Abilities.Glossary.ConstantSpells]</p>"
                },
                "requirements": {
                    "value": ""
                },
                "rules": [],
                "slug": "constant-spells",
                "source": {
                    "value": ""
                },
                "traits": {
                    "custom": "",
                    "rarity": {
                        "value": "common"
                    },
                    "value": []
                },
                "trigger": {
                    "value": ""
                },
                "weapon": {
                    "value": ""
                }
            },
            "effects": [],
            "flags": {
                "core": {
                    "sourceId": "Compendium.pf2e.bestiary-ability-glossary-srd.kakyXBG5WA8c6Zfd"
                }
            },
            "img": "systems/pf2e/icons/actions/Passive.webp",
            "name": "Constant Spells",
            "sort": 1400000,
            "type": "action"
        },
        {
            "_id": "bOcWbKQhhlIYVcyX",
            "data": {
                "actionCategory": {
                    "value": "defensive"
                },
                "actionType": {
                    "value": "passive"
                },
                "actions": {
                    "value": null
                },
                "description": {
                    "value": ""
                },
                "requirements": {
                    "value": ""
                },
                "rules": [
                    {
                        "key": "FlatModifier",
                        "predicate": {
                            "all": [
                                "emotion"
                            ]
                        },
                        "selector": "will",
                        "type": "untyped",
                        "value": 2
                    }
                ],
                "slug": null,
                "source": {
                    "value": ""
                },
                "traits": {
                    "custom": "",
                    "rarity": {
                        "value": "common"
                    },
                    "value": []
                },
                "trigger": {
                    "value": ""
                },
                "weapon": {
                    "value": ""
                }
            },
            "effects": [],
            "flags": {},
            "img": "systems/pf2e/icons/actions/Passive.webp",
            "name": "+2 To Will Saves vs. Emotion",
            "sort": 1500000,
            "type": "action"
        },
        {
            "_id": "TuTut6BPwHgd3Xp7",
            "data": {
                "actionCategory": {
                    "value": "offensive"
                },
                "actionType": {
                    "value": "passive"
                },
                "actions": {
                    "value": null
                },
                "description": {
                    "value": "<p>The quelaunt can cast the following cleric domain spells as 8th-level occult innate spells at will without spending Focus Points: <em>@Compendium[pf2e.spells-srd.Blind Ambition]{Blind Ambition}</em>, <em>@Compendium[pf2e.spells-srd.Captivating Adoration]{Captivating Adoration}</em>, and <em>@Compendium[pf2e.spells-srd.Delusional Pride]{Delusional Pride}</em>.</p>"
                },
                "requirements": {
                    "value": ""
                },
                "rules": [],
                "slug": null,
                "source": {
                    "value": ""
                },
                "traits": {
                    "custom": "",
                    "rarity": {
                        "value": "common"
                    },
                    "value": []
                },
                "trigger": {
                    "value": ""
                },
                "weapon": {
                    "value": ""
                }
            },
            "effects": [],
            "flags": {},
            "img": "systems/pf2e/icons/actions/Passive.webp",
            "name": "Emotional Focus",
            "sort": 1600000,
            "type": "action"
        },
        {
            "_id": "ady0G6RCsUbZ7gev",
            "data": {
                "actionCategory": {
                    "value": "offensive"
                },
                "actionType": {
                    "value": "action"
                },
                "actions": {
                    "value": 3
                },
                "description": {
                    "value": "<p>The quelaunt casts up to three spells chosen from its at-will innate spells and its emotional focus spells.</p>"
                },
                "requirements": {
                    "value": ""
                },
                "rules": [],
                "slug": null,
                "source": {
                    "value": ""
                },
                "traits": {
                    "custom": "",
                    "rarity": {
                        "value": "common"
                    },
                    "value": []
                },
                "trigger": {
                    "value": ""
                },
                "weapon": {
                    "value": ""
                }
            },
            "effects": [],
            "flags": {},
            "img": "systems/pf2e/icons/actions/ThreeActions.webp",
            "name": "Emotional Frenzy",
            "sort": 1700000,
            "type": "action"
        },
        {
            "_id": "AjYmWzjrt54sexgk",
            "data": {
                "actionCategory": {
                    "value": "offensive"
                },
                "actionType": {
                    "value": "action"
                },
                "actions": {
                    "value": 1
                },
                "description": {
                    "value": "<p><strong>Frequency</strong> once per round</p>\n<p><strong>Effect</strong> The quelaunt feeds on the emotional unrest of a single creature within 30 feet that's under a harmful emotion effect. The target must succeed at a <span data-pf2-check=\"will\" data-pf2-dc=\"37\" data-pf2-traits=\"attack,emotion,incapacitation,mental,damaging-effect\" data-pf2-label=\"Feed on Emotion DC\" data-pf2-show-dc=\"gm\">Will</span> save or take [[/r {4d10}[mental]]]{4d10 mental damage} and be @Compendium[pf2e.conditionitems.Stunned]{Stunned} for 1 round. If the target fails its saving throw, the quelaunt regains the same number of Hit Points and Feed on Emotion does not cost the quelaunt an action, allowing it to use another action this turn.</p>"
                },
                "requirements": {
                    "value": ""
                },
                "rules": [],
                "slug": null,
                "source": {
                    "value": ""
                },
                "traits": {
                    "custom": "",
                    "rarity": {
                        "value": "common"
                    },
                    "value": [
                        "attack",
                        "emotion",
                        "incapacitation",
                        "mental"
                    ]
                },
                "trigger": {
                    "value": ""
                },
                "weapon": {
                    "value": ""
                }
            },
            "effects": [],
            "flags": {},
            "img": "systems/pf2e/icons/actions/OneAction.webp",
            "name": "Feed on Emotion",
            "sort": 1800000,
            "type": "action"
        },
        {
            "_id": "XIYonpEs96Js86vZ",
            "data": {
                "actionCategory": {
                    "value": "offensive"
                },
                "actionType": {
                    "value": "action"
                },
                "actions": {
                    "value": 2
                },
                "description": {
                    "value": "<p>The quelaunt makes three melee Strikes, each against a different target within reach. The multiple attack penalty applies to each attack, but increases only after all the attacks have been made.</p>"
                },
                "requirements": {
                    "value": ""
                },
                "rules": [],
                "slug": null,
                "source": {
                    "value": ""
                },
                "traits": {
                    "custom": "",
                    "rarity": {
                        "value": "common"
                    },
                    "value": [
                        "attack"
                    ]
                },
                "trigger": {
                    "value": ""
                },
                "weapon": {
                    "value": ""
                }
            },
            "effects": [],
            "flags": {},
            "img": "systems/pf2e/icons/actions/TwoActions.webp",
            "name": "Rapid Strikes",
            "sort": 1900000,
            "type": "action"
        },
        {
            "_id": "p90CXzyif81DD51u",
            "data": {
                "actionCategory": {
                    "value": "offensive"
                },
                "actionType": {
                    "value": "free"
                },
                "actions": {
                    "value": null
                },
                "description": {
                    "value": "<p data-visibility=\"gm\"><strong>Trigger</strong> A creature fails a saving throw to resist one of the quelaunt's innate spells or emotional focus spells.</p>\n<p><strong>Effect</strong> As the quelaunt invades the triggering creature's mind and plants the seeds of negative emotions, it also strips away the target's feelings of hope or positivity. The quelaunt can immediately end a single emotion effect from which the triggering creature is benefiting.</p>"
                },
                "requirements": {
                    "value": ""
                },
                "rules": [],
                "slug": null,
                "source": {
                    "value": ""
                },
                "traits": {
                    "custom": "",
                    "rarity": {
                        "value": "common"
                    },
                    "value": [
                        "emotion",
                        "mental"
                    ]
                },
                "trigger": {
                    "value": ""
                },
                "weapon": {
                    "value": ""
                }
            },
            "effects": [],
            "flags": {},
            "img": "systems/pf2e/icons/actions/FreeAction.webp",
            "name": "Spiral of Despair",
            "sort": 2000000,
            "type": "action"
        },
        {
            "_id": "e4djxU6TlebRFhGq",
            "data": {
                "description": {
                    "value": ""
                },
                "item": {
                    "value": 0
                },
                "mod": {
                    "value": 30
                },
                "proficient": {
                    "value": 0
                },
                "rules": [],
                "slug": null,
                "source": {
                    "value": ""
                },
                "traits": {
                    "custom": "",
                    "rarity": {
                        "value": "common"
                    },
                    "value": []
                }
            },
            "effects": [],
            "flags": {},
            "img": "systems/pf2e/icons/default-icons/lore.svg",
            "name": "Deception",
            "sort": 2100000,
            "type": "lore"
        },
        {
            "_id": "194D0AyTzQZOWeVU",
            "data": {
                "description": {
                    "value": ""
                },
                "item": {
                    "value": 0
                },
                "mod": {
                    "value": 30
                },
                "proficient": {
                    "value": 0
                },
                "rules": [],
                "slug": null,
                "source": {
                    "value": ""
                },
                "traits": {
                    "custom": "",
                    "rarity": {
                        "value": "common"
                    },
                    "value": []
                }
            },
            "effects": [],
            "flags": {},
            "img": "systems/pf2e/icons/default-icons/lore.svg",
            "name": "Intimidation",
            "sort": 2200000,
            "type": "lore"
        },
        {
            "_id": "QiWQWBSaKpIvBvyI",
            "data": {
                "description": {
                    "value": ""
                },
                "item": {
                    "value": 0
                },
                "mod": {
                    "value": 27
                },
                "proficient": {
                    "value": 0
                },
                "rules": [],
                "slug": null,
                "source": {
                    "value": ""
                },
                "traits": {
                    "custom": "",
                    "rarity": {
                        "value": "common"
                    },
                    "value": []
                }
            },
            "effects": [],
            "flags": {},
            "img": "systems/pf2e/icons/default-icons/lore.svg",
            "name": "Occultism",
            "sort": 2300000,
            "type": "lore"
        }
    ],
    "name": "Quelaunt",
    "token": {
        "disposition": -1,
        "height": 2,
        "img": "systems/pf2e/icons/default-icons/npc.svg",
        "name": "Quelaunt",
        "width": 2
    },
    "type": "npc"
}
