{
    "_id": "hhzrxLk2HBc2RYj3",
    "content": "<p>Play on your turn after you have spent all of your Focus Points.</p>\n<hr />\n<p>Gain 1 Focus Point that must be spent by the end of your turn or it's lost. If you use this Focus Point, you become @Compendium[pf2e.conditionitems.Drained]{Drained 1}.</p>",
    "flags": {},
    "name": "Channel Life Force",
    "permission": {
        "default": 0
    }
}
