{
    "_id": "FbSRhHvCmXBSVkrn",
    "data": {
        "attributes": {
            "ac": {
                "check": 0,
                "details": "",
                "value": 12
            },
            "collisionDC": {
                "value": 16
            },
            "collisionDamage": {
                "value": "2d8"
            },
            "hardness": 5,
            "hp": {
                "brokenThreshold": 5,
                "details": "",
                "max": 30,
                "temp": 0,
                "value": 30
            }
        },
        "details": {
            "AC": 0,
            "crew": "1 pilot",
            "description": "<p>A steam cart looks like a cart with an alchemical cauldron that produces steam to power the cart's movement through a simple engine.</p>",
            "level": {
                "value": 2
            },
            "passengers": "1",
            "pilotingCheck": "Driving Lore (DC 16) or Crafting (DC 18)",
            "price": 120,
            "space": {
                "high": 4,
                "long": 10,
                "wide": 5
            },
            "speed": "25 feet (alchemical)"
        },
        "saves": {
            "fortitude": {
                "item": 0,
                "rank": 0,
                "saveDetail": "",
                "value": 8
            }
        },
        "source": {
            "value": "Pathfinder Guns & Gears"
        },
        "traits": {
            "ci": [],
            "di": {
                "custom": "",
                "value": [
                    "critical-hits",
                    "object-immunities",
                    "precision"
                ]
            },
            "dr": [],
            "dv": [],
            "rarity": {
                "value": "rare"
            },
            "size": {
                "value": "lg"
            },
            "traits": {
                "custom": "",
                "value": []
            }
        }
    },
    "effects": [],
    "flags": {},
    "img": "systems/pf2e/icons/default-icons/vehicle.svg",
    "items": [
        {
            "_id": "kbVUEpQsOKNyw0BS",
            "data": {
                "actionCategory": {
                    "value": ""
                },
                "actionType": {
                    "value": "passive"
                },
                "actions": {
                    "value": null
                },
                "description": {
                    "value": "<p>Whenever the steam cart takes collision damage, its engine expels a dense cloud of steam in a 5-foot emanation. The steam cart and all creatures in the steam become @Compendium[pf2e.conditionitems.Concealed]{Concealed}, and creatures outside the steam become concealed to creatures within it. The steam dissipates in 1 round.</p>"
                },
                "requirements": {
                    "value": ""
                },
                "rules": [],
                "slug": null,
                "source": {
                    "value": ""
                },
                "traits": {
                    "custom": "",
                    "rarity": {
                        "value": "common"
                    },
                    "value": []
                },
                "trigger": {
                    "value": ""
                }
            },
            "effects": [],
            "flags": {},
            "img": "systems/pf2e/icons/actions/Passive.webp",
            "name": "Steam Cloud",
            "sort": 0,
            "type": "action"
        }
    ],
    "name": "Steam Cart",
    "token": {
        "disposition": 0,
        "height": 2,
        "img": "systems/pf2e/icons/default-icons/vehicle.svg",
        "name": "Steam Cart",
        "width": 1
    },
    "type": "vehicle"
}
